﻿Key,Description,Standard,fr,en,de,fa,tr,ar,it,jp,kr,cn,vn,pt,sp
SAY.prologue_localization.25.,,Oxygène.,Oxygène.,Oxygen.,Sauerstoff,اکسیژن,Oksijen,الأكسجين.,Ossigeno.,空気。,산소,氧气,Oxy,Oxigênio.,Oxígeno.
SAY.prologue_localization.32.,,Carburant de vie.,Carburant de vie.,Fuel of life.,Lebenskraftstoff,ماده ی زندگی,Yaşam yakıtı.,وقود الحياة.,Carburante vitale.,生命の燃料。,삶의 에너지,生命的能量,Nguyên liệu của sự sống.,Combustível de vida.,¡Sin oxígeno no podríamos vivir!
SAY.prologue_localization.45.,,"Sans oxygène, nous ne pourrions exister.","Sans oxygène, nous ne pourrions exister.",Without oxygen we could not live !,Ohne Sauerstoff könnten wir nicht leben.,"بدون اکسیژن، ما نمیتوانیم زنده بمانیم",Oksijen olmadan var olamazdık.,بدون أكسجين لم نتمكن من الوجود.,Senza ossigeno non potremmo vivere !,酸素がなければ、私たちは存在できませんでした。,산소가 없으면 우리는 살 수 없어.,没有氧气，我们无法生存！,Không có ocy thì chúng ta không thể sống,Sem oxigênio não poderíamos viver!,¡Sin oxígeno no podríamos vivir!
SAY.prologue_localization.30.,,Mais il n'en a pas toujours été ainsi...,Mais il n’en a pas toujours été ainsi...,But it has not always been that way...,Aber es war nicht immer so ...,اما اکسیژن همیشه به این شکل نبوده است,Ama her zaman öyle değildi ...,ولكنها لم تكن كذلك دائما ...,Ma non è sempre stato così…,しかし、必ずしもそうではありませんでした...,항상 이랬던 건 아니야...,原本并不是这样的...,Nhưng không phải lúc nào cũng vậy...,Mas nem sempre foi assim ...,Pero no siempre ha sido así ...
SAY.prologue_localization.46.,,"A l'origine, l'oxygène était un poison. Les êtres vivants se sont lentement adaptés et ont commencé à respirer.","A l'origine, l'oxygène était un poison. Les êtres vivants se sont lentement adaptés et ont commencé à respirer.","Originally, oxygen was a poison. Living beings slowly adapted and began to breathe.","Ursprünglich war Sauerstoff eine Gift. Die Menschen haben sich allmählich daran angepaBt und haben begonnen, zu atmen",در ابتدا اکسیژن یک سم بوده است. اما موجودات زنده آرام آرام به آن عادت کرده اند و به کمک آن تنفس کرده اند,Başlangıçta oksijen bir zehirdi. Canlılar yavaş yavaş adapte oldu ve nefes almaya başladı.,"في الأصل ، كان الأكسجين سمًا. تكيفت الكائنات الحية ببطء وبدأت في التنفس.","In origine, l'ossigeno era un veleno al quale si sono pian piano adattati gli esseri viventi, che hanno iniziato a respirare.",もともと、酸素は毒でした。生物はゆっくりと順応し、呼吸を始めました。,산소는 원래 독이었어. 생명체들이 서서히 적응해가면서 마실 수 있게 된 거지.,氧气原本是个毒，是生物体慢慢适应才开始呼吸氧气的,"Thuở ban đầu, khí oxy từng là một chất độc. Các sinh vật sống đã từ từ thích nghi và bắt đầu sử dụng khí oxy để hô hấp.","Originalmente, o oxigênio era um veneno. Os seres vivos se adaptaram lentamente e começaram a respirar.","Originalmente, el oxígeno era un veneno. Los seres vivos se adaptaron lentamente y comenzaron a respirar."
SAY.prologue_localization.37.,,"Aujourd'hui, nous ne pouvons vivre que grâce à son existence.","Aujourd'hui, nous ne pouvons vivre que grâce à son existence.",Today we can only live thanks to its existence.,"Und heute, nur weil es Sauerstoff gibt, ist es möglich zu leben.",امروز ما فقط به کمک آن میتوانیم زنده بمانیم,Bugün sadece onun varlığından dolayı yaşayabiliyoruz.,اليوم لا يمكننا أن نعيش إلا بسبب وجودها.,Oggi possiamo vivere solo grazie alla sua esistenza.,今日、私たちはその存在のためにのみ生きることができます。,이제 우리는 산소 없이는 살 수 없어.,现在，我们无法离开氧气,"Ngày nay, chúng ta chỉ có thể sống nhờ vào oxy.",Hoje só podemos viver graças à sua existência.,Hoy solo podemos vivir gracias a su existencia.
SAY.prologue_localization.36.,,Notre histoire commence il y a 200 ans en l’an 2200 quand une race d’envahisseur extra-terrestre appelé les Aréonoids envahirent la terre.,Notre histoire commence il y a 200 ans en l’an 2200 quand une race d’envahisseur extra-terrestre appelé les Aréonoids envahirent la terre.,"Our story begins 200 years ago, in the year 2200, when an alien invader race called the Aeronoids invaded the earth.","Unsere Geschichte beginnt vor 200 Jahren, im Jahre 2200, als eine Rasse von auBerirdischen Invasoren, Aeronoïds genannt, auf die Erde eingefallen sind",داستان ما تویست سال پیش در سال 2200 شروع شد؛ زمانی که موجوداتی از یک نژاد مهاجم فرا زمینی به نام ارونوئید زمین را تصاحب کردند,"Hikayemiz, 200 yıl önce, 2200 yılında, uzaylı istilacı bir ırk olan Aeronoidlerin Dünya'yı istila etmesiyle başlıyor.",بدأت قصتنا قبل 200 عام في عام 2200 عندما غزا جنس فضائي غازي يسمى Aeronoids الأرض.,"La nostra storia inizia 200 anni fa, nell'anno 2200, quando invasori extraterrestri chiamati Aeronoidi invasero la terra.",私たちの物語は、200年前の2200年に、エアロノイドと呼ばれるエイリアンの侵略者の種族が地球に侵入したときに始まります。,우리 이야기는 200년 전인 2200년으로 거슬러 올라가. 그 해에 아에로노이드라 불리는 외계인들이 지구를 공격했지.,我们的历史开始于200年前的2200年。那一年，称为氧荡星人的外星人攻击了地球,"Câu chuyện của chúng ta bắt đầu từ 200 năm trước, vào năm 2200, khi một tộc người ngoài hành tinh, tên gọi Aeronoids, xâm chiếm Trái đất.","Nossa história começa há 200 anos, no ano de 2200, quando uma raça invasora alienígena chamada Aeronoids invadiu a Terra.","Nuestra historia comienza hace 200 años, en el año 2200, cuando una raza invasora alienígena llamada Aeronoids invadió la tierra."
SAY.prologue_localization.35.,,"Leur objectif : faire de notre planète, leur nouvelle demeure.","Leur objectif : faire de notre planète, leur nouvelle demeure.",Their goal: to make our planet their new home.,Ihr Ziel : unseren Planet zu besiedeln,هدف آن ها تبدیل کردن سیاره ما به یک مکان دیگر بود,Hedefleri: gezegenimizi yeni evleri yapmak.,هدفهم: جعل كوكبنا موطنهم الجديد.,Il loro obiettivo? fare del nostro pianeta la loro nuova casa !,彼らの目標は、私たちの惑星を彼らの新しい家にすることです。,아에로노이드들의 목표? 지구를 점령하는거야.,氧荡星人的目标？就是占领我们地球,Mục tiêu của chúng: biến Trái đất của chúng ta thành nhà của chúng.,Seu objetivo: fazer do nosso planeta seu novo lar.,Su objetivo: hacer de nuestro planeta su nuevo hogar.
SAY.prologue_localization.42.,,"Mais avec leurs poumons,ces envahisseurs ne pouvaient pas respirer. Pour survivre, ils ont créé un appareil qui a changé l'air sur la terre.","Mais avec leurs poumons,  ces envahisseurs ne pouvaient pas respirer. Pour survivre, ils ont créé un appareil qui a changé l'air sur la terre.","But with their lungs, these invaders could not breathe. To survive, they created a device that changed the air on the earth.","Aber mit ihren Lungen konnten die Invasoren nicht atmen. Um zu überleben haben sie ein Gerät geschafft, das die Luft auf der Erde geändert hat.","اما شش های این مهاجمان با هوای زمین سازگار نبود. پس آن ها،برای زنده ماندن، دستگاهی ساختند که بتواند هوای زمین را تغییر دهد",Ancak akciğerleriyle bu işgalciler dünyada nefes alamıyordu. Hayatta kalmak için yeryüzündeki havayı değiştiren bir cihaz yarattılar.,"لكن مع رئتيهم ، هؤلاء الغزاة لا يستطيعون التنفس. للبقاء على قيد الحياة ، ابتكروا جهازًا غير الهواء على الأرض.",Ma questi invasori con i loro polmoni non riuscivano a respirare. Quindi per sopravvivere crearono un marchingegno che modificò l'aria sulla terra.,しかし、彼らの肺で、これらの侵入者は呼吸することができませんでした。生き残るために、彼らは地球の空気を変える装置を作りました。,이 못된 침략자들은 자기들 폐로는 숨을 쉴 수 없어. 그래서 지구 대기를 바꾸는 기계를 개발한 거야.,这些可恶的侵略者无法通过他们的肺部呼吸，所以开发了改变地球空气的设备,"Nhưng, cấu trúc phổi của những kẻ xâm lăng này không cho phép chúng hô hấp bình thường. Để tồn tại, chúng đã tạo ra một thiết bị làm thay đổi không khí trên Trái đất.","Mas com seus pulmões, esses invasores não podiam respirar. Para sobreviver, eles criaram um dispositivo que mudou o ar da Terra.","Pero con sus pulmones, estos invasores no podían respirar. Para sobrevivir, crearon un dispositivo que cambió el aire de la tierra."
SAY.prologue_localization.41.,,"Ce changement nommé aéronisation a entraîné une augmentation de la pollution, rendant l'air irrespirable pour les êtres vivants.","Ce changement nommé aréonisation a entraîné une augmentation de la pollution, rendant l'air irrespirable pour les êtres vivants.","This change named aeronization caused an increase in pollution, making the air unbearable for living beings.","Diese Änderung, Aeronisation genannt, hat die Weltverschmutzung so verschlimmert, daB die Luft nicht mehr atembar für Lebewesen wurde","این تغییر، که ارونیزه کردن هوا نام گرفته است، آلودگی را در زمین افزایش داد و هوانی آن را برای موجودات زنده غیر قابل تنفس کرد","Havacılık olarak adlandırılan bu değişiklik, kirliliğin artmasına neden olarak havayı canlılar için solunmaz hale getirmiştir.","أدى هذا التغيير المسمى بالتهوية إلى زيادة التلوث ، مما يجعل الهواء غير قابل للتنفس للكائنات الحية.","Questo cambiamento prese il nome di aeronoidizzazione, che provocò un aumento dell'inquinamento, rendendo l'aria irrespirabile per gli esseri viventi.",エアロニゼーションと呼ばれるこの変化は汚染の増加につながり、空気を生物にとって通気性のないものにしました。,아에로노이드들이 공기를 바꾸는 바람에 지구 생명체가 숨을 못 쉴 정도로 공기가 오염되었어.,因为氧荡星人改变了空气，空气污染严重到地球生物无法呼吸的程度,"Sự thay đổi này gọi là sự biến khí hóa, làm gia tăng ô nhiễm, khiến cho các sinh vật sống không thể thở được.","Essa mudança denominada aeronização causou aumento da poluição, tornando o ar insuportável para os seres vivos.","Este cambio denominado aeronización provocó un aumento de la contaminación, haciendo que el aire fuera insoportable para los seres vivos."
SAY.prologue_localization.58.,,"Avant l'arrivée des Aéronoïdes, seuls quelques enfants avaient des difficultés à respirer à cause de ce qu'on appelle encore l'ASTHME.","Avant l'arrivée des Aréonoïdes, seuls quelques enfants avaient des difficultés à respirer à cause de ce qu'on appelle encore l'ASTHME.","Before the arrival of the Aeronoids, only a few children had difficulty breathing because of what is still called ASMA.",Vor das Eindringen der Aernoïds hatten nur wenige Kinder Schwierigkeiten wegen des sogenannten Asthmas zu atmen.,"قبل آمدن ارونوئیدها تنها چند کودک به خاطر بیماری که هنوز نامش آسم است، در تنفس دچار مشکل بودند","Aeronoidlerin gelişinden önce, sadece birkaç çocuk ASTIM denen şey nedeniyle nefes almakta güçlük çekiyordu.","قبل وصول Aeronoids ، كان عدد قليل من الأطفال يعانون من صعوبة في التنفس بسبب ما لا يزال يسمى ASTHMA.","Prima dell'arrivo degli Aeronoidi, soltanto alcuni bambini avevano difficoltà a respirare a causa di quello che viene ancora oggi chiamato ASMA.",Aeronoidsが到着する前は、まだ喘息と呼ばれているために呼吸困難になった子供はごくわずかでした。,"아에로노이드들이 지구에 오기 전, 천식이 있는 아이들은 몇몇뿐이었어.",在氧荡星人降临地球之前，只有少数儿童患有哮喘,"Trước khi có sự đổ bộ của bọn Aeronoids, chỉ một số ít trẻ em bị khó thở do cái gọi là HEN.","Antes da chegada dos Aeronóides, apenas algumas crianças tinham dificuldade para respirar por causa do que ainda é chamado de ASMA.","Antes de la llegada de los Aeronoids, solo unos pocos niños tenían dificultad para respirar debido a lo que todavía se llama ASMA."
SAY.prologue_localization.56.,,Apres l'aéronisation TOUS les enfants ont commencé à naître avec l'asthme !,Apres l'aréonisation TOUS les enfants ont commencé à naître avec l'asthme !,"After the aeronoidization, ALL children began to be born with asthma !","Nach der Aeronisation haben ALLE Kinder angefangen, mit Asthma zur Welt zu kommen.","ولی بعد از ارونیزه کردن هوا، تمام کودکان با آسم متولد میشدند",Havacılıktan sonra TÜM çocuklar astımla doğmaya başladı!,بعد البخاخة بدأ جميع الأطفال يولدون مصابين بالربو!,"Dalla aeronoidizzazione della terra, TUTTI i bambini cominciarono a nascere con l'asma !",エアブラシの後、すべての子供たちは喘息で生まれ始めました！,아에로노이드들이 공기를 바꾼 뒤로 모든 어린이가 천식에 걸려버렸지 뭐야.,自从氧荡星人改变了空气，所有儿童开始患有哮喘,"Sau khi có sự biến khí hóa, TẤT CẢ trẻ em bắt đầu sinh ra với HEN!","Após a aeronoidização, TODAS as crianças começaram a nascer com asma!","Después de la aeronoidización, ¡TODOS los niños comenzaron a nacer con asma!"
SAY.prologue_localization.62.,,"Pour lutter contre les Aéronoïdes et protéger la population de l'asthme, une équipe spéciale d'assaut a été créée.","Pour lutter contre les Aréonoïdes et protéger la population de l'asthme, une équipe spéciale d'assaut a été créée.","To combat the Aeronoids and protect the population from asthma, a special assault team was created.","Um gegen die Aeronoïds zu kämpfen und die Bevölkerung vom Asthma zu schützen, ist ein StoBtrupp gegründet worden.",برای مقابله با ارونوئیدها و محافظت از مردم یک گروه ضربت ویژه تشکیل شد,Aeronoidlerle savaşmak ve nüfusu astımdan korumak için özel bir saldırı ekibi oluşturuldu.,"لمكافحة Aeronoids وحماية السكان من الربو ، تم إنشاء فريق هجوم خاص.","Per combattere gli Aeronoidi e proteggere la popolazione dall'asma, fu creata una squadra speciale d'assalto.",Aeronoidと戦い、喘息から住民を守るために、特殊急襲部隊が結成されました。,"아에로노이드들에 맞서 싸우고, 천식이 있는 사람들을 보호하기 위해 특공대를 만들었어.",为了与氧荡星人抗争，并保护患有哮喘的人，我方组建了突击队,"Để chống lại tụi Aeronoids và bảo vệ người dân khỏi hen, một đội đột kích đặc biệt đã được thành lập.","Para combater os Aeronóides e proteger a população da asma, foi criada uma equipe especial de assalto.","Para combatir los Aeronoids y proteger a la población del asma, se creó un equipo de asalto especial."
SAY.prologue_localization.55.,,Ces experts de l'asthme parcourent le monde pour trouver le dispositif qui modifie l'air. Ils aident les gens à contrôler leur asthme.,Ces experts de l'asthme parcourent le monde pour trouver le dispositif qui modifie l'air. Ils aident les gens à contrôler leur asthme.,These asthma experts travel the world to find the device that modifies the air. They help people control their asthma.,"Diese Asthma-Experten ziehen durch die Welt, um die Vorrichtung zu finden, welche die Luft ändert. Sie helfen den Leuten, ihr Asthma zu kontrollieren",این متخصصان آسم در سرتاسر جهان حرکت میکردند تا راهی برای تعدیل هوا پیدا کنند. آن ها به مردم کمک میکردند تا آسم شان را کنترل کنند,"Bu astım uzmanları; havayı değiştiren cihazı bulmak için dünyayı dolaşıyor, insanların astımlarını kontrol etmelerine yardımcı oluyorlar.",يسافر خبراء الربو هؤلاء حول العالم للعثور على الجهاز الذي يغير الهواء. يساعدون الناس في السيطرة على الربو.,Questi esperti dell'asma girano il mondo per trovare il marchingegno che modifica l'aria. Aiutano le persone a tenere sotto controllo l'asma.,これらの喘息の専門家は、空気を変える装置を見つけるために世界中を旅しています。彼らは人々が喘息をコントロールするのを助けます。,이 특공대는 천식 천문가로 구성되어 있어. 무엇 때문에 우리가 마시는 공기가 변하는지 알아내려고 세계 방방곡곡을 돌아다니지. 천식이 있는 사람들을 도와주면서 말이야.,这些哮喘专家为了寻找改变空气的设备而周游世界，并帮助大家控制哮喘,Các chuyên gia về hen du hành khắp thể giới để truy tìm các thiết bị làm biến đổi không khí. Và họ cũng giúp người dân kiểm soát hen.,Esses especialistas em asma viajam pelo mundo para encontrar o dispositivo que modifica o ar. Eles ajudam as pessoas a controlar sua asma.,Estos expertos en asma viajan por el mundo para encontrar el dispositivo que modifica el aire. Ayudan a las personas a controlar su asma.
SAY.prologue_localization.47.,,Notre monde a soif d'air...,Notre monde a soif d'air...,Our world is thirsty for air...,Unser Welt ist durstig nach Luft ..,دنیای ما تشنه ی هواست,Dünyamız havaya susamış ...,عالمنا متعطش للهواء ...,Il nostro mondo ha sete d'aria...,私たちの世界は空気を渇望しています...,지구는 공기에 목말라 있어….,地球正饥渴于空气...,Thế giới của chúng ta đang cần lắm nguồn không khí sạch...,Nosso mundo está sedento de ar ...,Nuestro mundo tiene sed de aire ...
SAY.prologue_localization.28.,,Ils sont le remède ! Ils sont...,Ils sont le remède ! Ils sont...,They are the cure ! They are...,Sie sind das Wundermittel ! Sie sind ...,آن ها درمان هستند. آن ها...,Tedavi onlar! Onlar...,هم العلاج! هم...,E loro sono la soluzione ! Sono...,彼らは治療法です！彼らです...,우리들의 구세주야!,他们是我们的大救星！,Đó là phương thức chữa lành! Đó là...,Eles são a cura! Eles são...,¡Son la cura! Son...
,,,,,,,,,,,,,,,
SAY.prologue_localization.104,,Le combat fut long et pénible…,Le combat fut long et pénible…,,,,,,,,,,,,
SAY.prologue_localization.106,,Mais nos héros parvinrent à repousser l'envahisseur.,Mais nos héros parvinrent à repousser l'envahisseur.,,,,,,,,,,,,
SAY.prologue_localization.105,,"Malheureusement, même après la destruction de la machine qui causait l'aréonisation,","Malheureusement, même après la destruction de la machine qui causait l'aréonisation,",,,,,,,,,,,,
SAY.prologue_localization.108,,le mal avait déjà été fait. ,le mal avait déjà été fait. ,,,,,,,,,,,,
SAY.prologue_localization.107,,Nous devons maintenant survivre dans un monde ou l'asthme est une triste réalité pour tous.,Nous devons maintenant survivre dans un monde ou l'asthme est une triste réalité pour tous.,,,,,,,,,,,,
SAY.prologue_localization.110,,Mais nous ne sommes pas démunies.,Mais nous ne sommes pas démunies.,,,,,,,,,,,,
SAY.prologue_localization.109,,L'organisation à la source de notre victoire contre les Aréonoïdes est là pour nous protéger.,L'organisation à la source de notre victoire contre les Aréonoïdes est là pour nous protéger.,,,,,,,,,,,,
