﻿Key,Description,Standard,fr,en,de,fa,tr,ar,it,jp,kr,cn,vn,pt,sp
SAY.scene01_localization.103.Rebecca,,"Mon amie Julie est partie courir dans un champ de pollen. Je lui aie dit de ne pas le faire vu sa sensibilité à cet allergène,","Julie est partie courir dans un champ de pollen. Je lui ai dit de ne pas y aller vu sa sensibilité à cet allergène, mais son égo a pris le dessus et elle s’est lancée avec un rire de folie et sans sa pompe…","Julie went running in a pollen field. I told her not to go because of her sensitivity to this allergen, but her ego took over and she started with a laugh of madness and without her pump...",,,,,,,,,,,
SAY.scene01_localization.105.{$PlayerName},,Vraiment pas brillant comme idée. L'exercice physique en soi peut être un déclencheur des symptômes d'asthme.,"Vraiment pas brillant comme idée. Le sport peut être un déclencheur, surtout si vous faites de l'exercice dans un lieu où il y a des allergènes comme le pollen et l’herbe à poux.","Really not brilliant as an idea. Sports can be a trigger, especially if you are exercising in a place where there are allergens such as pollen and ragweed.","Keine glänzende Idee ! Sport kann ein Auslöser sein, vor allem wenn du in einem Ort übst, wo es Allergene wie Pollen und Ragweed (ambrosia trifida) gibt",این واقعا ایده ی خوبی نیست. ورزش میتواند تشدیدکننده ی بیماری باشد. مخصوصا اگر شما در جایی ورزش کنید که مواد حساسیت زا مثل گرده ی گل و علف های حشره زا وجود داشته باشند,"Gerçekten de çok kötü bir fikir Spor, özellikle polen ve kanarya otu gibi alerjenlerin olduğu bir alanda egzersiz yapıyorsanız tetikleyici olabilir.","حقا ليست فكرة رائعة. يمكن أن تكون الرياضة محفزًا ، خاصةً إذا كنت تمارس الرياضة في مكان به مسببات الحساسية مثل حبوب اللقاح وعشب الرجيد.","Davvero non brillante come idea. Lo sport può essere un fattore scatenante, soprattutto se ti stai esercitando in un luogo dove ci sono allergeni come il polline e l'ambrosia.",本当に素晴らしいアイデアではありません。特に花粉やブタクサなどのアレルゲンのある地域で運動する場合は、スポーツがきっかけになる可能性があります。,정말 안 좋은 생각이야. 꽃가루 같은 알레르기를 일으키는 물질이 있는 곳에서 운동을 하면 천식 증상이 나타날 수 있어.,这也太危险啊。在那些有花粉等引起过敏反应的物质的地方运动会引发哮喘症状。,"Không phải là một ý tưởng hay lắm đâu. Tập thể thao có thể gây khởi phát hen, đặc biệt nếu tập tại nơi có nhiều dị nguyên như phấn hoa và cỏ dại.","Realmente não é uma ideia brilhante. Os esportes podem ser um gatilho, especialmente se você estiver se exercitando em um local onde existem alérgenos como pólen e ambrósia.","Realmente no es una idea brillante. Los deportes pueden ser un desencadenante, especialmente si hace ejercicio en un lugar donde hay alérgenos como el polen y la ambrosía."
SAY.scene01_localization.107.Rebecca,,"Dans son cas à elle, c'est le pollen. En plus elle courrait et elle a oublié sa pompe à la maison.","Dans son cas, c’est le pollen. En plus elle a oublié sa pompe à la maison.","In her case, it is pollen. In addition she forgot her pump at home.","Was sie betrifft, handelt es sich um Pollen. Dazu hat sie ihre Pumpe zu Hause vergessen","در این مورد، مشکل گرده است. علاوه بر این او دستگاه تنفس اش را در خانه جا گذاشته است.","Onun durumunda, polen. Ayrıca evde pompasını unuttu.","في حالته ، إنه حبوب اللقاح. بالإضافة إلى ذلك ، نسيت المضخة في المنزل.","Nel suo caso, è polline. Inoltre ha dimenticato la bomboletta a casa.",彼の場合、それは花粉です。さらに、彼女は自宅でポンプを忘れていました。,꽃가루 알레르기야. 게다가 집에 흡입기까지 두고 왔으니!,他确实对花粉过敏。甚至把吸入器落在家里了！,"Trong trường hợp của cô ấy, đó là phấn hoa. Thêm vào đó, cô ấy còn quên đem theo bình xịt khẩn cấp.","No caso dele, é pólen. Além disso, ela esqueceu a bomba em casa.","En su caso, es polen. Además, olvidó su bomba en casa."
SAY.scene01_localization.109.{$PlayerName},,Grave erreur ! On devrait toujours avoir sur soi son inhalateur de secours lorsque l'on fait du sport.,Grave erreur ! On devrait toujours avoir sur soi son inhalateur de secours lorsque l'on fait du sport.,Serious mistake! You should always carry your emergency inhaler when you play sports.,"Schlimmer Fehler ! Man sollte seinen HilfsInhalator bei sich haben, wenn man Sport treibt",یک اشتباه بزرگ. همیشه باید هنگام ورزش دستگاه تنفس را همراه داشت,Büyük hata! Spor yaparken her zaman acil inhalerimizi yanımızda bulundurmalıyız.,خطأ فادح! يجب عليك دائمًا حمل جهاز الاستنشاق معك عند ممارسة الرياضة.,Errore grave! Dovresti sempre portare il tuo inalatore di soccorso quando pratichi sport.,大ミス！運動するときは、常にレスキュー吸入器を携帯する必要があります。,큰 실수한거야! 운동할 때는 흡입기를 항상 챙겨야 해!,这怎么行！运动时候一定要带上吸入器的呀！,Sai lầm nghiêm trọng! Bạn luôn phải đem theo bình xịt cấp cứu bên người khi tập luyện thể thao.,Erro grave! Você deve sempre carregar o seu inalador de resgate ao praticar esportes.,¡Grave error! Siempre debe llevar su inhalador de rescate cuando practique deportes.
SAY.scene01_localization.111.Rebecca,,Elle voulait jouer seule dans la forêt malgré son état. Mes recommandations ne faisaient que l'énerver.,Elle voulait aller seule dans la forêt malgré son état. Mes recommandations ne faisaient que l’énerver. Elle se croit parfois invincible malgré sa sensibilité…,She wanted to go alone in the forest despite her condition. My recommendations only made her angry. She thinks herself sometimes invincible despite her sensitivity ...,"Trotz ihres Zustands wollte sie allein in den Wald gehen . Meine Ratschläge nervten sie nur. Sie glaubt sich manchmal unsiegbar, obwohl sie empfindlich ist....",او میخواست علیرغم شرایطش تنها به جنگل برود. توصیه های من فقط او را عصبی تر میکرد. برخلاف وضعیت اش او گاهی خیال میکرد که شکست ناپذیر است,Durumuna rağmen ormanda tek başına gitmek istedi. Tavsiyelerim onu sadece sinirlendirdi. Bazen hassasiyetine rağmen yenilmez olduğuna inanıyor ...,أرادت أن تذهب وحدها في الغابة على الرغم من حالتها. توصياتي فقط استاءت منه. تعتقد أحيانًا أنها لا تقهر على الرغم من حساسيتها ...,Voleva andare da sola nella foresta nonostante le sue condizioni. Le mie raccomandazioni lo hanno solo fatta arrabbiare. A volte pensa di essere invincibile nonostante la sua sensibilità...,彼女は自分の状態にもかかわらず、一人で森に行きたかった。私の推薦は彼を怒らせただけだった。彼女は時々彼女の敏感さにもかかわらず無敵であると自分自身を信じています...,상테가 좋지 않은데도 꼭 혼자 가겠다고 하고 숲으로 갔어. 내가 하는 말은 모두 잔소리로 들리는지 가끔 그렇게 고집을 부려.,尽管状态不佳，他还是要自己一个人去森林里。他把我说的所有话当作唠叨，有时候就是这么固执…,Cô ấy muốn đi dạo một mình trong rừng mặc cho tình trạng hen của mình. Lời khuyên của mình chỉ khiến cô ấy nổi giận. Cô ấy nghĩ cô ấy là bất khả chiến bại dù cô ấy rất nhạy cảm với các dị nguyên...,"Ela queria ir sozinha para a floresta, apesar de sua condição. Minhas recomendações apenas a deixaram com raiva. Ela se acha às vezes invencível, apesar de sua sensibilidade ...",Quería ir sola al bosque a pesar de su condición. Mis recomendaciones solo la enojaron. A veces se cree invencible a pesar de su sensibilidad ...
SAY.scene01_localization.113.{$PlayerName},,Ne laissez jamais seule une personne qui présente des symptômes d'asthme dans un environnement à risque remplis de déclencheurs.,Ne laissez jamais seule une personne qui présente des symptômes dans un environnement à risque. Accompagnez-la pour aller chercher son inhalateur s’i elle ne l'a pas sur elle.,Never leave a person with symptoms alone in a risky environment. Accompany her to get her inhaler if she does not have it on her.,"Jemanden mit Symptomen von Asthma nie in einer riskanten Umgebung allein lassen. Begleite ihn, um seinen Inhalator zu holen, falls er keinen bei sich hat","هرگز کسی را که علائم این بیماری را دارد در مکان برخطر تنها نگذارید. همراهش بروید و اگر دستگاه تنفس اش را همراه ندارد، برایش پیدا کنید","Riskli bir ortamda semptomları olan bir kişiyi asla yalnız bırakmayın. Eğer yanında yoksa, inhaler almak için onunla gidin.",لا تترك الشخص المصاب بالأعراض بمفرده في بيئة محفوفة بالمخاطر. اذهب معها للحصول على جهاز الاستنشاق الخاص بها إذا لم يكن لديها.,Non lasciare mai una persona con sintomi da sola in un ambiente rischioso. Accompagnala per prendere il suo inalatore se non ce l'ha con se.,危険な環境に症状のある人を一人にしないでください。彼女が吸入器を持っていない場合は、彼女と一緒に吸入器を入手してください。,천식이 있는 사람을 위험할 수 있는 환경에 혼자 두면 안 돼. 흡입기를 가지러 갈 때 같이 가줘.,不能让患有哮喘的人一个人待在危险的环境。如果她没带上吸入器，一定要陪着她一起回去拿。,Không bao giờ để một người có các triệu chứng hen ở một mình trong một môi trường có nhiều yếu tố nguy cơ. Đi cùng cô ấy để lấy bình xịt nếu cô ấy không đem theo bên người.,"Nunca deixe uma pessoa com sintomas sozinha em um ambiente de risco. Acompanhe-a para pegar o inalador, se ela não estiver com ele.",Nunca deje sola a una persona con síntomas en un entorno de riesgo. Acompáñela a conseguir su inhalador si no lo tiene.
SAY.scene01_localization.115.Rebecca,,Je le ferai la prochaine fois. Pouvez-vous secourir mon amie? Elle est inconsciente dans le fond du champ de pampas.,"Je le ferai la prochaine fois. Pouvez-vous secourir mon amie ? Elle est inconsciente, au bout du champ de pampas.","I will do it next time. Can you rescue my friend? She is unconscious, at the end of the pampas field.","Ich tue es nächstes Mal. Kannst du meiner Freundin helfen ? Sie ist bewuBtlos, am Ende des Pampafelds",این را بعدا انجام میدهم. میتوانید به دوست من کمک کنید؟ او در انتهای مزرعه ی جارو بیهوش افتاده است.,Bir dahaki sefere yapacağım. Arkadaşımı kurtarabilir misin? Pampa tarlasının sonunda bilinçsiz.,سأفعل ذلك في المرة القادمة. هل يمكنك مساعدة صديقي؟ لقد فقدت الوعي في نهاية حقل بامباس.,"Lo farò la prossima volta. Puoi salvare il mio amico? Lei è incosciente, alla fine del campo di pampas.",次回はやります。私の友達を助けてくれませんか？彼女はパンパ畑の終わりで無意識です。,다음부터는 그렇게 할께. 내 친구를 구해줘. 풀밭 속에서 의식을 잃고 쓰러져 있어.,下次一定会这样。能不能救救我朋友？她在草丛里昏过去了。,"Mình sẽ làm như thế lần tới. Bạn có thể cứu bạn mình không? Cô ấy bất tỉnh rồi, ở phía cuối cánh đồng ngô.","Eu farei isso da próxima vez. Você pode resgatar meu amigo? Ela está inconsciente, no final do campo dos pampas.","Lo haré la próxima vez. ¿Puedes rescatar a mi amigo? Ella está inconsciente, al final del campo pampeano."
SAY.scene01_localization.118.{$PlayerName},,Je m'en occupe!,Je m'en occupe !,I'm taking care of it!,Ich kümmere mich darum,من انجامش میدم,Ben ilgileniyorum!,سأهتم بذلك !,Ci penso io !,お世話になっています！,알았어!,知道了！,Mình sẽ lo chuyện đó!,Estou cuidando disso!,¡Me estoy ocupando de eso!
SAY.scene01_localization.117.{$PlayerName},,Les pampas sont des herbes ornementales qui produisent beaucoup de pollen. Je vais devoir garder un oeil sur mon propre niveau d'allergie et mon endurance.,Les pampas sont des herbes qui produisent beaucoup de pollen. Je vais devoir garder un œil sur mon niveau d’allergie et mon endurance. Mieux vaut que j’utilise mon antihistaminique avant d’aller la secourir !,Pampas are herbs that produce a lot of pollen. I will have to keep an eye on my level of allergy and my stamina. Better to use my antihistamine before going to rescue her!,"Die Pampas sind eine Art Gras, das viel Pollen erzeugt. Ich muB auf den Grad meiner Allergien unf auf mein Ausdauer aufpassen. Es ist besser, daB ich mein Antihistamin nehme, bevor ich ihr Hilfe leiste",پامپاس یه نوع علفه که حساسیت میاره. من باید مراقب سطح حساسیت و سطح مقاومتم باشم.بهتره که قبل از بیرون رفتن انتی هیستامین بخورم,Pampalar çok fazla polen üreten bitkilerdir. Alerji seviyeme ve dayanıklılığıma göz kulak olmam gerekecek. Onu kurtarmaya gitmeden önce antihistaminimi kullansam iyi olacak!,البامبا أعشاب تنتج الكثير من حبوب اللقاح. سأضطر إلى مراقبة مستوى الحساسية لدي وقدرة التحمل. من الأفضل أن أستخدم مضادات الهيستامين قبل الذهاب لإنقاذها!,Le pampa sono erbe che producono molto polline. Dovrò tenere d'occhio il mio livello di allergia e la mia resistenza. Meglio usare il mio antistaminico prima di andare a salvarla !,パンパは花粉をたくさん生成するハーブです。アレルギーレベルとスタミナに注意を払う必要があります。彼女を救助する前に抗ヒスタミン薬を使用したほうがいいです！,"꽃가루가 많이 날리는 풀밭에서는, 알레르기 증상이 심하지 않은지, 건강 상태는 어떤지부터 확인해야해. 구출작전에 나서기 전에 항히스타민제부터 써야겠어.",在花粉过多的草坪，我们得首先确认过敏反应是否严重，健康状况怎么样。在展开营救作战之前那得使用抗组胺剂,Ngô là một loại cây tạo ra rất nhiều phấn hoa. Mình phải xem lại tình trạng dị ứng và sức bền của mình. Tốt nhất là nên sử dụng thuốc kháng histamin trước khi đi cứu cô ấy.,Os pampas são ervas que produzem muito pólen. Terei que ficar de olho no meu nível de alergia e no meu vigor. Melhor usar meu anti-histamínico antes de ir resgatá-la!,Las pampas son hierbas que producen mucho polen. Tendré que vigilar mi nivel de alergia y mi resistencia. ¡Es mejor usar mi antihistamínico antes de ir a rescatarla!
SAY.scene01_localization.120.Rebecca,,Merci! Héros de l'asthme!,Merci! Héros de l'asthme !,Thank you! Asthma Hero!,Danke ! Asthma-Held !,افرین قهرمان اسمی,Teşekkür ederim! Astım Kahramanı!,شكرا لك! بطل الربو!,Grazie ! Asthma Hero !,ありがとうございました！ぜんそくのヒーロー！,"천식히어로, 정말 고마워!",感谢你！哮喘英雄！,Cảm ơn Hiệp sĩ Hen!,Obrigado! Asthma Hero!,¡Gracias! ¡Héroe del asma!
SAY.scene01_localization.386.Rebecca,,"Merci d'avoir secourue mon amie. Soyez prudent en escaladant la montagne, le vent est fort...","Merci d'avoir secourue mon amie. Sois prudent en escaladant la montagne, le vent est fort...","Thank you for rescuing my friend. Be careful when climbing the mountain, the wind is strong ...","Ich danke dir, meiner Freundin geholfen zu haben.Sei vorcichtig beim Steigen des Berges, der Wind ist stark","برای اینکه به دوستم کمک کردی از تو ممنونم. موقع بالا رفتن از کوه، مراقب باش. باد شدید است",Arkadaşımı kurtardığın için teşekkürler. Dağa tırmanırken dikkatli ol rüzgar kuvvetli ...,شكرا لانقاذ صديقي. احذر من تسلق الجبل فالرياح قوية ...,"Grazie per aver salvato la mia amico. Fai attenzione quando sali sulla montagna, il vento è forte ...",友達を助けてくれてありがとう。山に登るのに注意してください、風が強いです...,친구를 구해줘서 고마워. 산에 오를때 조심해. 바람이 많이 불어.,谢谢你救我的朋友。上山时候要小心，风大呢。,"Cảm ơn vì đã cứu bạn mình. Hãy cẩn thận khi leo lên ngọn núi, gió thổi mạnh lắm...","Obrigado por resgatar meu amigo. Cuidado ao subir a montanha, o vento é forte ...","Gracias por rescatar a mi amigo. Cuidado al subir la montaña, el viento es fuerte ..."
SAY.scene01_localization.185.Dufus,,"Fanny est une fanatique de l'escalade, mais elle souffre régulièrement du rhume des foins. Elle est très sensible au pollen et il y en a beaucoup dans le coin.","Fanny est fan d’escalade, mais a régulièrement le rhume des foins. Elle est sensible au pollen et il y en a beaucoup dans le coin. L’air des hauteurs est aussi froid et sec aujourd’hui, ce qui n’aide pas.","Fanny is a fan of climbing, but regularly has hay fever. It is sensitive to pollen and there are many in the area. The air of the heights is as cold and dry today, which does not help.","Fanny is Fan von Klettern und Steigen, aber sie leidet regelmäBig an Heuschnupfen. Sie ist auf Pollen empfindlich. und davon gibt es viel in der Umgebung. Die Luft in der Höhe ist kalt und trocken heute, was nicht hilft.","فنی عاشق کوه نوردی است اما مرتب به تب یونجه مبتلا میشود. او به گرده هم حساسیت دارد، همان چیزی که در این منطقه زیاد است. هوای اتفاعات نیز سرد و خشک است و این اصلا برای او خوب نیست","فانی یکی از طرفداران کوهنوردی است ، اما به طور منظم تب یونجه دارد. به گرده حساس است و تعداد زیادی در این منطقه وجود دارد. هوای ارتفاعات امروز به همان اندازه سرد و خشک است که کمکی نمی کند.","فاني من محبي التسلق ، لكنه يعاني من حمى القش بانتظام. إنها حساسة لحبوب اللقاح وهناك الكثير منها حولها. الهواء في المرتفعات بارد جدًا وجاف اليوم ، وهذا لا يساعد.","Fanny è una fan dell'arrampicata, ma regolarmente ha la febbre da fieno. È sensibile al polline e ce ne sono molti nella zona. L'aria delle altezze è fredda e secca oggi, il che non aiuta.",ファニーはロッククライミングのファンですが、定期的に花粉症を患っています。彼女は花粉に敏感で、周りにはたくさんあります。今日も高所の空気は冷たく乾燥しているので、助けにはなりません。,파니는 등산이 취미야. 하지만 꽃가루 알레르기가 있어서 조심해야 해. 특히 높은 곳은 공기가 차고 건조해서 더욱 신경 써야 해.,伐妮经常登山。但是因为对花粉过敏，所以千万要小心。特别是高原地区，空气冷又干燥，得加倍注意。,"Fanny là một tín đồ leo núi, nhưng thường bị dị ứng phấn hoa. Cô ấy dị ứng với phấn hoa, vốn có rất nhiều trong vùng. Không khí ở trên cao vừa lạnh vừa khô, rất không tốt cho đường thở của cô ấy.","Fanny é fã de escalada, mas tem febre do feno regularmente. É sensível ao pólen e há muitos na área. O ar das alturas está tão frio e seco hoje, o que não ajuda.","Fanny es fanática de la escalada, pero regularmente tiene fiebre del heno. Es sensible al polen y hay muchos en la zona. El aire de las alturas es hoy tan frío y seco, lo que no ayuda."
SAY.scene01_localization.187.{$PlayerName},,Le rhume des foins peut déclencher une crise d'asthme si les précautions adéquates ne sont pas prises.,Le rhume des foins peut déclencher une crise d’asthme si les bonnes précautions ne sont pas prises.,Hay fever can trigger an asthma attack if the right precautions are not taken.,"Der Heuschnupfen kann einen Asthmaanfall auslösen, wenn die guten VorsichtsmaBnahmen nicht getroffen werden.","اگر برای درمان تب یونجه چاره اندیشی نشود، این بیماری میتواند باعث ایجاد حمله ی آسمی شود","Saman nezlesi, doğru önlemler alınmazsa astım krizini tetikleyebilir.",يمكن أن تؤدي حمى القش إلى نوبة ربو إذا لم يتم اتخاذ الاحتياطات المناسبة.,La febbre da fieno può scatenare un attacco d'asma se non vengono prese le giuste precauzioni.,適切な予防策を講じないと、花粉症が喘息発作を引き起こす可能性があります。,꽃가루 알레르기를 잘 예방하지 않으면 천식 발작을 일으킬 수 있어.,如果不好好预防花粉变应性回引起哮喘发作。,Bệnh dị ứng có thể gây khởi phát cơn hen cấp nếu không cẩn trọng.,A febre do feno pode desencadear um ataque de asma se as precauções certas não forem tomadas.,La fiebre del heno puede desencadenar un ataque de asma si no se toman las precauciones adecuadas.
SAY.scene01_localization.189.Dufus,,Elle est montée ce matin et elle n’est jamais revenue. Je m’inquiète pour elle…,Elle est montée ce matin et elle n’est jamais revenue. Je m’inquiète pour elle…,She came up this morning and she never came back. I'm worried about her...,Sie ist heute morgen gestiegen und ist nicht zurückgekehrt. Ich mache mich Sorgen um sie ...,فنی امروز صعود کرده است و هنوز برنگشته است. برایش نگرانم,Bu sabah geldi ve bir daha geri dönmedi. Onun için endişeleniyorum ...,صعدت هذا الصباح ولم تعد أبدًا. أنا قلق عليها ...,È venuta questa mattina e non è mai tornata. Sono preoccupato per lei...,彼女は今朝起きて、二度と戻ってこなかった。彼女が心配です...,아침에 등산가서는 아직 돌아오지 않았어. 괜찮은 걸까...,她早上出门去登山还没回来。她没事吧...,"Cô ấy đi lên ấy sáng nay, và chưa thấy quay trở lại. Mình lo lắng quá...",Ela apareceu esta manhã e nunca mais voltou. Estou preocupado com ela ...,Ella vino esta mañana y nunca regresó. Estoy preocupado por ella...
SAY.scene01_localization.191.{$PlayerName},,"Ne vous inquiétez pas, je prends cette situation en charge!","Ne vous inquiétez pas, je prends cette situation en main !","Do not worry, I take this situation in my hands!",Keine Sorge ! Ich nehme die Situation in die Hand !,نگران نباشد. من این ماجرا را مدیریت میکنم,"Merak etmeyin, bu durumu kontrolüm altına alıyorum!","لا تقلق ، سأتولى مسؤولية هذا الموقف!","Non preoccuparti, me ne occupo io !",心配しないでください、私がこの状況を担当します！,걱정마세요. 대장님. 제가 해결할게요!,不要担心。我来解决！,"Đừng lo, mình sẽ lo vụ này cho!","Não se preocupe, eu tomo essa situação em minhas mãos!","¡No te preocupes, tomo esta situación en mis manos!"
SAY.scene01_localization.193.Dufus,,"Elle fait très rarement des crises d'asthme induite pas l'effort, mais le contexte du moment est alarmant.","Elle fait très rarement des crises d’asthme suite au sport, mais je suis inquiet.","She rarely has asthma attacks as a result of sports, but I am worried.","Sie hat selten Asthmaanfälle, nachdem sie Sport getrieben hat, aber ich mache mir trozdem Sorge",به ندرت او بعد از ورزش دچار حمله ی اسمی میشود اما من نگرانم,"Spor nedeniyle nadiren astım krizi geçiriyor, ama endişeleniyorum.","نادرًا ما تصاب بنوبات الربو بعد التمرين ، لكنني قلق.","Raramente ha attacchi di asma a causa dello sport, ma sono preoccupato.",彼女はスポーツによる喘息発作を起こすことはめったにありませんが、私は心配しています。,"보통은 운동해도 발작이 없지만, 그래도 걱정이야.",她平常运动时候不会发作，但是我还是担心。,"Thường thì hiếm khi cô ấy lên cơn hen cấp khi tập thể thao, nhưng mình hơi lo lắng một chút.","Ela raramente tem ataques de asma como resultado de esportes, mas estou preocupado.","Rara vez tiene ataques de asma como resultado de los deportes, pero estoy preocupado."
SAY.scene01_localization.195.{$PlayerName},,Je dois faire vite!,Je dois faire vite !,I have to hurry!,Ich muB mich beeilen !,باید سریع عمل کنم,Acele etmek zorundayım!,يجب أن أكون سريعًا!,Devo sbrigarmi !,私は速くなければなりません！,빨리 가봐야겠어!,我得赶紧了！,Mình phải đi cho nhanh đây!,Eu tenho que me apressar!,¡Tengo prisa!
SAY.scene01_localization.249.{$PlayerName},,"Ici {$PlayerName}, j'ai besoin d'un transport d'urgence à ma position. Géolocalisez-moi le plus vite possible!","Ici {$PlayerName}, j’ai besoin d’un transport d’urgence. Trouvez-moi le plus vite possible !","Here {$PlayerName}, I need an emergency transport. Find me as soon as possible!",Ici {$PlayerName}. Ich brauche dringend einen Notfallransport. Find mir einen so schnell wie möglich !,"این جا ، من به یک وسیله حمل و نقل اضطراری احتیاج دارم.برام هر چه زودتر گیرش بیارید.","Burada {$ PlayerName}, acil durum nakline ihtiyacım var. Beni en kısa sürede bulun!","هنا ، أحتاج إلى وسيلة نقل طارئة. تجدني في اسرع وقت ممكن!","Qui {$PlayerName}, ho bisogno di un trasporto di emergenza. Trovatemi il più presto possibile !",ここ{$ PlayerName}、緊急輸送が必要です。できるだけ早く私を見つけてください！,여기는 {$닉네임}대원. 환자 이송이 필요해요. 제 위치를 빨리 파악해주세요!,这里是{$PlayerName}队员! 我们需要急救车，请派来一辆！,"Ở đây này {$PlayerName}, mình cần một xe cấp cứu ngay. Nhanh nhất có thể nhé!","Aqui {$PlayerName}, preciso de um transporte de emergência. Encontre-me o mais rápido possível!","Aquí, {$PlayerName}, necesito un transporte de emergencia. ¡Encuéntrame lo antes posible!"
SAY.scene01_localization.6.Colonel,,"Nous avons votre position, les secours sont en route.","Nous avons votre position, les secours sont en route.","We have your position, help is on the way.","Wir haben deine Position, Hilfe ist auf dem Weg.","ما هم مثل شما هستیم،کمک تو راهه.","Konumunuzu aldık, yardım yolda.","لدينا موقفك ، المساعدة في الطريق.","Abbiamo la tua posizione, l'aiuto è in arrivo.",私たちはあなたの立場を持っています、助けは途上にあります。,위치를 파악했으니까 조금만 기다려. 구조팀이 곧 갈 거야.,我们知道位置了，你稍等！急救队在路上了。,"Chúng tôi đã rà được vị trí của bạn, đội cấp cứu đang đến nhé.","Temos a sua posição, a ajuda está a caminho.","Tenemos su puesto, la ayuda está en camino."
SAY.scene01_localization.259.{$PlayerName},,"faite vite, sa respiration siffle à un tel point qu'elle sonne comme un courant d'air qui passe à travers une porte en hiver??,Faite vite","Faite vite, sa respiration siffle autant qu'un courant d’air qui passe à travers une porte…","Be quick, her breathing hisses as much as a draft passing through a door...",Mach schnell. Sie atmet nur schwierig und sie zischt wie ein Luftzug durch eine Tür ....,"عجله کنید ، نفس کشیدن او به همان اندازه که یک پیش نویس از در می گذرد هیس می کند ...","Acele edin, nefesi bir kapıdan geçen hava akımı kadar tıslıyor ...","أسرع ، تنفسه يصدر صوت هسهسة مثل تيار الهواء الذي يمر عبر الباب ...","Sei veloce, il loro respiro sembra aria che fischia soffiando sotto una porta...",急いで、ドアを通り抜けるドラフトと同じくらい彼の呼吸のヒスノイズ...,빨리 해주세요. 숨쉴 때 문틈으로 공기가 새듯이 색색 소리가 납니다.,请快点。他们喘息如门缝间泄漏空气时候的嘶嘶声。,"Nhanh lên, hơi thở cô ấy rít lên như gió lùa qua cửa hẹp ấy...","Seja rápido, sua respiração apita tanto quanto uma corrente de ar passando por uma porta ...","Sea rápido, su respiración suena tanto como una corriente de aire a través de una puerta ..."
SAY.scene01_localization.258.Docteur Boubou,,C'est un signe que les muscles qui entourent ses bronches se sont resserré et ses voies respiratoires se sont rétrécis.,Ce son signifie que les muscles qui entourent les bronches se sont resserrés. L’air doit passer à travers des voies respiratoires plus étroites que d'habitude. Nous devons agir rapidement !,This means that the muscles that surround the bronchi have tightened. The air must pass through the respiratory tract narrower than usual. We must act quickly!,,,,,,,,,,,
SAY.scene01_localization.257.{$PlayerName},,Elle n'a pas son bronchodilatateur avec elle et vu son état elle risque aussi d'avoir besoin d'un corticoïde pour dégonfler la muqueuse causée par la densité du pollen qui à pénétrer ses voies respiratoires.,"Elle n’a pas son inhalateur et vu tout le pollen qu'elle a respiré, elle risque aussi d’avoir besoin d’un corticoïde pour libérer ses voies respiratoires.","She does not have her inhaler and she has seen all the pollen she has breathed, she may also need a corticosteroid to free her airways.","Sie hat ihren Inhalator nicht bei sich und angesichts der Menge Pollen, die sie eingeatmet hat, wird sie bestimmt Corticoïd brauchen, um ihre Atemwege zu befreien","اسپری خودش را نیاورده و با توجه به همه گرده هایی که تنفس کرده است ، ممکن است برای پاکسازی مجاری تنفسی به کورتون نیز نیاز داشته باشد.","Solunum cihazı yok ve soluduğu tüm poleni görmüş, ayrıca solunum yollarını boşaltmak için bir kortikosteroide ihtiyacı olabilir.","ليس لديها جهاز الاستنشاق الخاص بها وأعطتها كل حبوب اللقاح التي استنشقتها ، فقد تحتاج أيضًا إلى كورتيكوستيرويد لتنظيف مجاريها الهوائية.","Non ha il suo inalatore e ha visto tutto il polline che ha respirato, potrebbe anche aver bisogno di un corticosteroide per liberare le sue vie respiratorie.",彼女は吸入器を持っておらず、吸い込んだ花粉をすべて与えられているので、気道をきれいにするためにコルチコステロイドが必要な場合もあります。,흡입기를 안 가져갔어요. 꽃가루를 많이 마셔 기도가 좁아지면 스테로이드가 필요할 것같아요.,她没有带走吸入器。,"Cô ấy không đem bình xịt và với rất nhiều phấn hoa cô ấy đã hít phải, có lẽ phải cho cô ấy dùng corticosteroid để giải tỏa đường dẫn khí đang bị tắc của cô ấy.",Ela não tem seu inalador e viu todo o pólen que respirou. Ela também pode precisar de um corticosteróide para liberar suas vias aéreas.,"No tiene su inhalador y ha visto todo el polen que ha respirado, también puede necesitar un corticosteroide para liberar sus vías respiratorias."
SAY.scene01_localization.256.Docteur Boubou,,J'ai ici sa prescription. Nous sommes en route avec du Salbutamol et du Prednisone.,J’ai ici sa prescription. Nous sommes en route avec du salbutamol et du prednisone.,I have here the prescription. We are on the road with salbutamol and prednisone.,Ich habe ihre Anordnung. Wir kommen mit Salbutanol und Prednison an.,من نسخه اش را اینجا دارم. ما با سالبوتامول و پردنیزون در راه هستیم.,Reçetesi burada var. Salbutamol ve prednizon ile yoldayız.,لدي وصفته الطبية هنا. نحن في طريقنا مع السالبوتامول والبريدنيزون.,Ho qui la sua ricetta. Siamo in viaggio con salbutamolo e prednisone.,ここに彼の処方箋があります。サルブタモールとプレドニゾンを使用しています。,여기 처방전이 있어. 살부타몰과 프레드니손 갖고 가는 중이야.,这里有处方。 我们正拿着沙丁胺醇和泼尼松在前往的路上。,"Mình đang cầm đơn thuốc của cô ấy, Chúng mình đang đến với salbutamol và prednisone.",Eu tenho aqui a receita. Estamos na estrada com salbutamol e prednisona.,"No tiene su inhalador y ha visto todo el polen que ha respirado, también puede necesitar un corticosteroide para liberar sus vías respiratorias."
SAY.scene01_localization.264.Julie,,Je… voulais… juste tester... mon endu…rance…,Je… voulais… juste tester... mon endu…rance…,I... wanted... just to test... my endurance...,Ich...wollte...nur mein...Ausdauer...prü...fen...,من ... من ... فقط می خواستم ... اندازه تحملم رو... بسنجم.,Ben ... sadece ... dayanıklılığımı ... test etmek istedim ...,أردت ... فقط أن أختبر ... تحملي ... فاسد ...,Volevo... solo... testare ... la mia... resistenza...,私は...欲しかった...ただテストするために...私の持久力...悪臭を放つ...,난... 단지... 내 지구...력을... 시험해... 보고... 싶었... 어.,我...只是想...测试...一下...我的体力....,Mình... chỉ ... muốn ... thử khả năng chịu đựng của mình....,Eu ... queria ... apenas testar ... minha resistência ...,Yo ... quería ... solo probar ... mi resistencia ...
SAY.scene01_localization.263.{$PlayerName},,"Ne parlez pas, concentrez-vous sur votre respiration. Les secours sont en route.","Ne parlez pas, concentrez-vous sur votre respiration. Les secours sont en route.","Do not talk, focus on your breathing. Help is on the way.",Sag nichts. Konzentriere dich auf dein Atmen.. Die Hilfe kommt bald.,"حرف نزن، تمرکزتو بزار رو نفس کشیدن، کمک تو راهه.","Konuşma, nefesine odaklan. Yardım yolda.","لا تتحدث ، ركز على تنفسك. المساعدة في الطريق.","Non parlare, concentrati sulla respirazione. I soccorsi stanno arrivando.",話さないで、呼吸に集中してください。すぐ助けに行くからね。,말하지 마시고 숨쉬기에 집중하세요. 구조팀이 곧 도착할 거에요.,不要说话，你只要记得呼吸。救援队正在路上。,"Đừng nói nữa, tập trung vào hơi thở nào. Hỗ trợ đang đến.","Não fale, concentre-se em sua respiração. A ajuda está a caminho.","No hables, concéntrate en tu respiración. La ayuda está en camino."
SAY.scene01_localization.262.Julie,,Merci! C'est bien??la dernière fois ??que je prends??un tel risque??Merci ! C'est bien??la dernière fois ??que je prends??un tel risque??,Merci ! C’est bien… la dernière fois … que je prends… un tel risque…,Thank you ! It's... the last time... I take... such a risk...,Danke ! Es ist ...wirklich...das letzte ...Mal ..daB ich ....ein sol...ches Risiko...eingehe...,"ممنونم، دیگه دفعه آخریه که همچین خطری می‌کنم.",Teşekkür ederim ! Bu ... böyle bir risk aldığım ...son defa...,شكرا لك ! إنه لأمر جيد ... آخر مرة ... أتحملها ... مثل هذه المخاطرة ...,Grazie ! Bene... l'ultima volta... che prendo... un tale rischio...,ありがとうございました ！それは良いことです...最後に...私が取る...そのようなリスク...,고마워. 다시는... 이런 위험한... 행동... 하지 않을께.,谢谢！我...再也不会...干这种...危险的行为...,Cảm ơn! Đây ... là lần cuối... mình thử dại dột như vậy...,Obrigado! É ... a última vez ... eu corro ... tal risco ...,Gracias ! Es ... la última vez ... que tomo ... tal riesgo ...
SAY.scene01_localization.9.Valeria,,Mon amie et moi sommes des expertes en allergène.,Mon amie et moi sommes expertes en allergène.,My friend and I are allergen experts.,Meine Freundin und ich sind Allergien-Experte,میدونید من و دوستم متخصصیم؟,Arkadaşım ve ben alerjen uzmanıyız.,أنا وصديقي خبراء في الحساسية.,Io e il mio amico siamo esperti di allergeni.,私の友人と私はアレルゲンの専門家です。,친구와 난 알레르겐을 잘 아는 전문가야.,朋友和我是变应原专家。,Bạn mình và mình là các chuyên gia về dị nguyên.,Meu amigo e eu somos especialistas em alérgenos.,Mi amigo y yo somos expertos en alergenos.
SAY.scene01_localization.37.Tinder,,"Vous saviez que le pollen est un déclencheur très fréquent des symptômes d'asthme? Générés par les arbres, les herbes et les mauvaises herbes,",Vous saviez que le pollen est un déclencheur très fréquent ? Il provient des arbres et des herbes et peut aussi provoquer des allergies.,Did you know that pollen is a very common trigger? It comes from trees and herbs and can also cause allergies.,"WuBtest du, daB Pollen ein sehr häufiger Auslöser ist ? Es wird durch die Bäume und das Gras erzeugt und kann auch Allergien verursachen.",آیا می دانید که گرده گل بسیار محرک است؟ از درختان و علف ها می آید و همچنین می تواند باعث آلرژی شود.,Polenin çok yaygın bir tetikleyici olduğunu biliyor muydun? Ağaçlardan ve bitkilerden gelir ve ayrıca alerjiye neden olabilir.,هل تعلم أن حبوب اللقاح هي سبب شائع جدًا؟ يأتي من الأشجار والأعشاب ويمكن أن يسبب الحساسية أيضًا.,Sapevi che il polline è un fattore scatenante molto comune ? Proviene da alberi ed erbe e può anche causare allergie.,花粉が非常に一般的な引き金であることをご存知ですか？それは木や草に由来し、アレルギーを引き起こす可能性もあります。,"꽃가루 때문에 자주 천식이 생길 수 있다는 사실, 알고 있었어? 꽃가루는 나무나 풀에서 나오는데 알레르기를 일으키키도 해.",你知道花粉是引起哮喘的常见诱因？ 它来自树和草，也会引起过敏反应。,"Bạn có biết là phấn hoa rất dễ gây khởi phát cơn hen cấp không? Chúng từ cây gỗ và cả cây bụi, và có thể gây dị ứng.",Você sabia que o pólen é uma causa muito comum? Ele vem de árvores e ervas e também pode causar alergias.,¿Sabías que el polen es un desencadenante muy común? Proviene de árboles y hierbas y también puede causar alergias.
SAY.scene01_localization.36.Valeria,,Les réactions allergiques surviennent lorsque le système immunitaire devient sensible et réagit aux substances présentes dans l'environnement appelées allergènes comme le pollen.,Les réactions allergiques surviennent lorsque le système immunitaire devient sensible et réagit à des substances présentes dans l'environnement comme le pollen.,Allergic reactions occur when the immune system becomes sensitive and reacts to substances in the environment such as pollen.,"Die allergischen Reaktionen treten auf, wenn das Immunsystem empfindlich wird und auf Substanzen reagiert, die sich in der Umgebung befinden, wie Pollen",واکنش های آلرژیک زمانی اتفاق می افتد که سیستم ایمنی بدن حساس شده و به مواد موجود در محیط مانند گرده گل واکنش نشان می دهد.,"Alerjik reaksiyonlar, bağışıklık sistemi duyarlı hale geldiğinde ve polen gibi ortamdaki maddelere tepki gösterdiğinde ortaya çıkar.",تحدث تفاعلات الحساسية عندما يصبح الجهاز المناعي حساسًا ويتفاعل مع المواد الموجودة في البيئة مثل حبوب اللقاح.,"Le reazioni allergiche si verificano quando il sistema immunitario diventa sensibile e reagisce alle sostanze presenti nell'ambiente, come il polline.",アレルギー反応は、免疫系が敏感になり、花粉などの環境中の物質に反応したときに発生します。,알레르기 반응은 우리 몸의 면역체계가 꽃가루 같은 물질에 예민하게 반응하면서 나타나.,当免疫系统变得敏感并与环境中的花粉等物质发生反应时，就会发生过敏反应。,"Phản ứng dị ứng xảy ra khi hệ miễn dịch trở nên nhạy cảm, và phản ứng lại các yếu tố trong môi trường như phấn hoa.","As reações alérgicas ocorrem quando o sistema imunológico se torna sensível e reage a substâncias do meio ambiente, como o pólen.",Las reacciones alérgicas ocurren cuando el sistema inmunológico se vuelve sensible y reacciona a sustancias en el ambiente como el polen.
SAY.scene01_localization.35.Tinder,,"Quand la quantité de pollen dans l'environnement est élevée, il est préférable de rester à l'intérieur à l'air climatisé surtout durant des journées chaudes et venteuses.","Quand la quantité de pollen est élevée, il est préférable de rester à l’intérieur, surtout durant les journées chaudes et venteuses.","When the amount of pollen is high, it is best to stay indoors, especially on hot, windy days.","Wenn die Menge Pollen hoch ist, ist es besser, innen zu bleiben, vor allem bei warmen und windigen Tagen","وقتی مقدار گرده زیاد است ، بهتر است در خانه بمانید ، به خصوص در روزهای گرم و باد.","Polen miktarı fazla olduğunda, özellikle sıcak ve rüzgarlı günlerde dışarı çıkmamak en iyisidir.","عندما تكون كمية حبوب اللقاح عالية ، فمن الأفضل البقاء في الداخل ، خاصة في الأيام الحارة والرياح.","Quando la quantità di polline è elevata, è meglio rimanere in casa, specialmente nelle giornate calde e ventose.",花粉の量が多いときは、特に暑くて風の強い日には、屋内にいるのが最善です。,"꽃가루가 많이 날리는 날, 특히 덥고 바람이 심할 땐 외출을 삼가야 해.",当花粉量过高时，最好呆在室内，尤其是在大风天。,"Khi lượng phấn hoa nhiều, tốt nhất nên ở trong nhà, đặc biệt vào những ngày nóng và nhiều gió.","Quando a quantidade de pólen é alta, é melhor ficar em casa, especialmente em dias quentes e ventosos.","Cuando la cantidad de polen es alta, es mejor quedarse adentro, especialmente en días calurosos y ventosos."
SAY.scene01_localization.34.Valeria,,"Quand vous devez absolument sortir et qu'il y a des plantes sécrétantes du pollen sur votre chemin, contournez-les.","Quand tu dois vraiment sortir et qu’il y a des plantes à pollen sur votre chemin, contournez-les. Ne touchez pas les plantes qui peuvent déclencher des crises ou lavez-vous les mains immédiatement après.","When you really have to go out and there are pollen plants on your way, get around them. Do not touch plants that can trigger asthma attacks or wash your hands immediately afterwards.","Wenn du unbedingt drauBen muBt und du Pollenpflanzen unterwegs triffst, versuche, um sie herumzugehen. Rühre nicht die Pflanzen, die Asthmaanfälle verursachen können oder wasch dir sofort die Hände","وقتی واقعاً مجبور شدید از خانه بیرون بروید و گیاهان گرده ای در راه شما وجود دارد ، آنها را دور بزنید. گیاهانی که می توانند باعث تشنج شوند را لمس نکنید یا بلافاصله دستان خود را بشویید.","Gerçekten dışarı çıkman gerektiğinde eğer yolda polen bitkileri varsa, onaların etrafından dolaş. Nöbetleri tetikleyebilecek bitkilere dokunma veya hemen ardından ellerini yıka.","عندما تضطر حقًا إلى الخروج وتوجد نباتات حبوب اللقاح في طريقك ، قم بالتجول حولها. لا تلمس النباتات التي يمكن أن تسبب النوبات أو اغسل يديك فورًا بعد ذلك.","Quando devi uscire per forza ci sono piante di polline sulla tua strada, aggirarli. Non toccare le piante che possono scatenare convulsioni o lavarsi le mani subito dopo.",あなたが本当に外に出なければならず、あなたの道に花粉植物があるとき、それらの周りを回ってください。発作を引き起こす可能性のある植物に触れたり、直後に手を洗ったりしないでください。,"외출을 꼭 해야 한다면 꽃가루가 많은 곳은 피해야 해. 천식을 일으킬 수 있는 식물을 절대 만지면 안 되지만, 그래도 만졌다면 바로 손을 씻어야 해.",当你必须出门，务必躲开花粉飞扬的地方。 请勿触摸会引起哮喘的植物。如有触碰，立即洗手。,"Nếu bạn thật sự phải đi ra ngoài và có các cây phát ra phấn hoa trên đường bạn đi, hãy đi vòng qua chúng. Đừng chạm vào các cây có phấn hoa, và rửa tay liền ngay sau đó.","Quando você realmente precisar sair e houver pólen no seu caminho, contorne-as. Não toque em plantas que podem causar convulsões nem lave as mãos imediatamente a seguir.","Cuando realmente tenga que salir y haya plantas de polen en su camino, evítelas. No toque plantas que puedan provocar convulsiones ni se lave las manos inmediatamente después."
SAY.scene01_localization.32.Valeria,,"Pour faciliter la détection d'une personne aux prises avec un rhume des foins, sachez que les symptômes courants inclues le nez qui coule, des yeux rouges et larmoyants,","Les symptômes courants du rhume des foins incluent : nez qui coule, sécrétions nasales, yeux rouges et larmoyants, irritation au niveau du nez, des yeux, de la bouche, éternuements, congestion pouvant entraîner des maux de tête.",,,,,,,,,,,,
SAY.scene01_localization.46.Tinder,,"Les allergies peuvent être saisonnières ou annuelles. La plupart des allergies sont saisonnières, mais certaines personnes présentent des symptômes tout au long de l'année.","La plupart des allergies sont saisonnières, mais certaines personnes présentent des symptômes toute l'année. Si cela est votre cas, soyez prudent s’il y a du pollen dans le secteur.","Most allergies are seasonal, but some people have symptoms all year round. If this is your case, be careful if there is pollen in the area.","Die meisten Allergien sind jahreszeitlich, aber einige Leute haben Symptome während des ganzen Jahres. Wenn es dein Fall ist, sei vorsichtig, wenn es Pollen in deiner Umgebung gibt.","بیشتر آلرژی ها فصلی هستند ، اما برخی از افراد در طول سال علائم دارند. اگر این مورد شماست ، در صورت وجود گرده در ناحیه مراقب باشید.","Alerjilerin çoğu mevsimseldir, ancak bazı kişilerde tüm yıl boyunca semptomlar görülür. Durumun buysa, bölgede polen olup olmadığına dikkat et.","معظم أنواع الحساسية موسمية ، لكن بعض الأشخاص تظهر عليهم الأعراض على مدار السنة. إذا كانت هذه هي حالتك ، فكن حذرًا إذا كان هناك حبوب لقاح في المنطقة.","La maggior parte delle allergie sono stagionali, ma alcune persone hanno sintomi tutto l'anno. Se questo è il tuo caso, fai attenzione se c'è polline nell'aria.",ほとんどのアレルギーは季節性ですが、一年中症状がある人もいます。このような場合は、その地域に花粉がないか注意してください。,"알레르기는 대부분 계절성이지만, 어떤 사람은 일년 내내 알레르기 증상이 있어. 니가 그렇다면 꽃가루가 날리는 곳은 조심하는 게 좋지.",大多数过敏是季节性的，但有些人一年四季都有症状。 如果是这种情况，请注意该区域是否有花粉。,"Dị ứng phần lón xảy ra theo mùa, nhưng một số người có thể có triệu chứng quanh năm. Nếu bạn rơi vào nhóm này, hãy cẩn thận nếu gặp phấn hoa trong vùng.","A maioria das alergias é sazonal, mas algumas pessoas apresentam sintomas durante todo o ano. Se for este o seu caso, tome cuidado se houver pólen na área.","La mayoría de las alergias son estacionales, pero algunas personas presentan síntomas durante todo el año. Si este es tu caso, ten cuidado si hay polen en la zona."
SAY.scene01_localization.241.Tinder,,"Avoir des allergies peut avoir un impact important sur vos activités quotidiennes. Vous pouvez être constamment fatigué, avoir de la difficulté à vous concentrer, être irritable ou simplement ne pas vous sentir bien.","Les allergies peuvent créer de la fatigue, rendre la concentration difficile, rendre irritable.","Allergies can create fatigue, make the concentration difficult, irritable.","Die Allergien können Müdigkeit schaffen, Konzentration schwierig machen, Reizbarkeit verursachen.","آلرژی می تواند خستگی ایجاد کند ، تمرکز را دشوار کند و شما را تحریک کند.","Alerjiler yorgunluğa sebep olabilir, konsantrasyonu zorlaştırabilir, sinirlenmeye sebep olabilir.","يمكن للحساسية أن تسبب التعب ، وتجعل من الصعب التركيز ، وتجعلك عصبيًا.","Le allergie possono causare affaticamento, difficoltà di concentrazione, irritabilità.",アレルギーは倦怠感を引き起こし、集中力を低下させ、イライラさせる可能性があります。,알레르기가 있으면 쉽게 피로해지거나 집중력이 떨어지고 예민해 질 수 있어.,过敏反应会引发疲劳，使注意力难以集中，易怒。,"Dị ứng có thể gây ra mệt mỏi, khó tập trung, dễ cáu gắt.","As alergias podem criar fadiga, tornar a concentração difícil, irritável.","Las alergias pueden crear fatiga, hacer que la concentración sea difícil, irritable."
SAY.scene01_localization.48.Valeria,,"Une réaction allergique se produit lorsque des allergènes comme le pollen entrent en contact avec des cellules appelées mastocytes qui se trouvent dans la muqueuse du nez,","Lorsque des allergènes comme le pollen entrent en contact avec certaines cellules de la muqueuse du nez, des poumons, de la peau et de l'intestin, cela entraîne une inflammation et des symptômes d'une réaction allergique.","When allergens such as pollen come in contact with certain cells in the lining of the nose, lungs, skin and intestine, this causes inflammation and symptoms of an allergic reaction.","Wenn die Allergien wie Pollen in Berührung mit gewissen Zellen der Nasen-, Lungen-,Haut-und Darmschleimhaut kommen, werden eine Entzündung sowie Symptome einer allergischen Reaktion erscheinen.","وقتی مواد حساسیت زا مانند گرده با سلولهای خاصی در پوشش بینی ، ریه ها ، پوست و روده ها تماس پیدا می کنند ، باعث التهاب و علائم واکنش آلرژیک می شود.","Polen gibi alerjenler burun, akciğerler, deri ve bağırsaktaki belirli hücrelerle temas ettiğinde, bu iltihaplanmaya ve alerjik reaksiyon semptomlarına neden olur.","عندما تتلامس المواد المسببة للحساسية مثل حبوب اللقاح مع خلايا معينة في بطانة الأنف والرئتين والجلد والأمعاء ، فإنها تسبب التهابًا وأعراضًا لرد فعل تحسسي.","Quando allergeni come il polline entrano in contatto con determinate cellule del rivestimento del naso, dei polmoni, della pelle e dell'intestino, questo causa infiammazione e sintomi di una reazione allergica.",花粉のようなアレルゲンが鼻、肺、皮膚、腸の内側の特定の細胞と接触すると、炎症やアレルギー反応の症状を引き起こします。,"꽃가루 같은 알레르기 원인 물질이 코나 폐, 피부, 장에 있는 세포와 닿으면 염증을 일으키고 알레르기 반응이 생길 수 있어.",当诸如花粉之类的过敏原与鼻子，肺，皮肤和肠壁中的某些细胞接触时，这会引起炎症和过敏反应症状。,"Khi các dị nguyên như phấn hoa tiếp xúc với các tế bào lót ở mũi, phổi, da và ruột, sẽ gây ra viêm và các triệu chứng của một phản ứng dị ứng.","Quando alérgenos como o pólen entram em contato com certas células no revestimento do nariz, pulmões, pele e intestino, isso causa inflamação e sintomas de uma reação alérgica.","Cuando los alérgenos como el polen entran en contacto con ciertas células en el revestimiento de la nariz, los pulmones, la piel y el intestino, esto causa inflamación y síntomas de una reacción alérgica."
SAY.scene01_localization.50.Tinder,,"Pour protéger votre corps, le système immunitaire produit des anticorps appelés immunoglobulines E, qui sont attachés aux mastocytes et provoquent la libération de nombreux produits chimiques,","Pour protéger votre corps, le système immunitaire produit des anticorps, qui provoquent entre autres la libération d'histamine dans le sang.","To protect your body, the immune system produces antibodies that cause, among other things, the release of histamine into the blood.","Um deinen Körper zu schützen, erzeugt das Immunsystem Antikörper, welche u.a. Histaminfreisetzung in das Blut verursachen","برای محافظت از بدن شما ، سیستم ایمنی بدن آنتی بادی تولید می کند که از جمله موارد دیگر باعث ترشح هیستامین در خون می شود.","Vücudumuzu korumak için bağışıklık sistemi, diğer şeylerin yanı sıra histaminin kana salınmasına neden olan antikorlar üretir.","لحماية جسمك ، ينتج الجهاز المناعي أجسامًا مضادة ، والتي من بين أشياء أخرى تتسبب في إطلاق الهيستامين في الدم.","Per proteggere il tuo corpo, il sistema immunitario produce anticorpi che causano, tra le altre cose, il rilascio di istamina nel sangue.",あなたの体を保護するために、免疫系は抗体を生成し、それはとりわけヒスタミンを血中に放出させます。,면역체계는 우리 몸을 보호하기 위해 항체를 만들어. 이 항체가 혈액에 히스타민 같은 물질을 내보내지.,为了保护我们身体，免疫系统制造抗体会导致抗组胺剂释放到血液里。。,"Để bảo vệ cơ thể, hệ miễn dịch sản sinh ra các kháng thể, và điều này gây ra sự phóng thích histamin vào máu, cũng như nhiều tác động khác.","Para proteger seu corpo, o sistema imunológico produz anticorpos que causam, entre outras coisas, a liberação de histamina no sangue.","Para proteger su cuerpo, el sistema inmunológico produce anticuerpos que provocan, entre otras cosas, la liberación de histamina a la sangre."
SAY.scene01_localization.52.Valeria,,"La réponse à l'histamine peut produire des éternuements, des démangeaisons, de l'urticaire et des yeux larmoyants.","L'histamine peut produire des éternuements, démangeaisons, yeux larmoyants et de l'urticaire.","Histamine can produce sneezing, itching, watery eyes and hives.","Die Histamin kann Niesen, Juckreiz, lärmende Augen und Urtikaria verursachen.","پاسخ به هیستامین می تواند عطسه ، خارش ، کهیر و آبریزش چشم ایجاد کند.","Histamin hapşırma, kaşıntı, gözde sulanma ve kurdeşene sebep olabilir.",يمكن أن يسبب الهستامين العطس والحكة والعيون الدامعة وخلايا النحل.,"L'istamina può produrre starnuti, prurito, lacrimazione e orticaria.",ヒスタミンはくしゃみ、かゆみ、涙目、じんましんを引き起こす可能性があります。,"우리 몸에서 히스타민이 분비되면 재채기, 가려움증, 눈물, 두드러기 같은 반응이 나타날 수 있어.",组胺酸能引发打喷嚏，发痒，眼泪，皮疹等症状。,"Histamin có thể gây hắt hơi, ngứa, chảy nước mắt hay nổi mề đay.","A histamina pode causar espirros, coceira, lacrimejamento e urticária.","La histamina puede producir estornudos, picazón, ojos llorosos y urticaria."
SAY.scene01_localization.56.Tinder,,"Les antihistaminiques sont indispensables ! Ils bloquent le mécanisme à l’origine de la réaction allergique et soulagent entre autres les éternuements, l’écoulement nasal, le picotement des yeux, les larmoiements et démangeaisons.","Les antihistaminiques sont indispensables ! Ils bloquent le mécanisme à l’origine de la réaction allergique et soulagent entre autres les éternuements, l’écoulement nasal, le picotement des yeux, les larmoiements et démangeaisons.","Antihistamines are essential! They block the mechanism causing the allergic reaction and relieve sneezing, runny nose, itchy eyes, watery eyes and itching, among other things.","Die Antihistamine sind unentbehrlich ! Sie blockieren den Mechanismus, der die allergische Reaktion verursacht und lindern u.a. Niesen, laufende Nase, juckende und lärmende Augen sowie Juckreiz.","آنتی هیستامین ها ضروری هستند! آنها مکانیسم ایجاد کننده واکنش آلرژیک را مسدود کرده و عطسه ، آبریزش بینی ، خارش چشم ، پارگی و خارش را از بین می برند.","Antihistaminikler çok önemlidir! Alerjik reaksiyona neden olan mekanizmayı bloke ederler ve diğer şeylerin yanı sıra hapşırma, burun akıntısı, kaşıntılı gözler, sulu gözler ve kaşıntıyı giderirler.","مضادات الهيستامين ضرورية! إنها تمنع الآلية التي تسبب رد الفعل التحسسي وتخفف من العطس وسيلان الأنف وحكة العينين والعيون الدامعة والحكة ، من بين أمور أخرى.","Gli antistaminici sono essenziali! Bloccano il meccanismo che causa la reazione allergica e allevia starnuti, naso che cola, prurito agli occhi, lacrimazione e prurito, tra le altre cose.",抗ヒスタミン薬は不可欠です！それらはアレルギー反応を引き起こすメカニズムをブロックし、くしゃみ、鼻水、目のかゆみ、涙やかゆみなどを和らげます。,"항히스타민제는 꼭 필요한 약이야! 콧물, 재채기, 눈 따끔거림, 눈물, 가려움 같은 알레르기 반응이 일어나지 않게 도와주지.",抗组胺剂非常重要！它会防止鼻涕，喷嚏，眼部刺痛，眼泪，发痒等过敏反应。,"Các thuốc kháng histamin rất cần thiết! Chúng chặn cơ chế gây ra phản ứng dị ứng và xoa dịu các triệu chứng hắt hơi, chảy mũi, mắt ngứa, chảy nước mắt, cũng như ngứa ngáy và nhiều tác dụng khác.","Os anti-histamínicos são essenciais! Eles bloqueiam o mecanismo que causa a reação alérgica e aliviam espirros, coriza, coceira nos olhos, lacrimejamento e coceira, entre outras coisas.","¡Los antihistamínicos son esenciales! Bloquean el mecanismo causante de la reacción alérgica y alivian los estornudos, la secreción nasal, la picazón en los ojos, lagrimeo y el picor, entre otras cosas."
SAY.scene01_localization.64.Valeria,,Soyez prudent quand êtes proche d’un allergène qui déclenche une crise. Ayez toujours votre médicament de secours sur vous.,Soyez prudent quand vous êtes proche d’un allergène qui déclenche une crise. Ayez toujours votre médicament de secours sur vous.,Be careful when you are close to an allergen that triggers a asthma attack. Always have your rescue medicine on you.,"Sei vorsichtig, wenn du in der Nähe eines Allergens bist, das ein Anfall auslösen kann. Du muBt dein Medikament immer bei dir haben",مراقب باشید وقتی در اطراف ماده حساسیت زا هستید که باعث تشنج می شود. همیشه داروی تسکین دهنده خود را همراه داشته باشید.,Nöbeti tetikleyen bir alerjene yakın olduğunda dikkatli ol. Kurtarma ilacın her zaman yanında olsun.,كن حذرًا عند التعامل مع مسببات الحساسية التي تسبب النوبة. احمل دائمًا دواء مسكنك معك.,Fate attenzione quando siete vicino a un allergene che può scatenare un attacco. Dovete sempre avere l'inalatore d'emergenza con se.,発作を引き起こすアレルゲンの周りにいるときは注意してください。常にあなたの救済薬を持ってください。,천식 발작을 일으키는 알레르기 원인 물질이 주변에 있으면 조심해야 해. 완화제를 항상 가지고 다니는 것도 잊지 말고!,如周边有引发哮喘发作的变应原，千万要小心！不要忘记随身携带缓解剂！,Cẩn thận khi bạn ở gần nguồn dị nguyên có thể khởi phát cơn hen cấp. Luôn đem theo thuốc cấp cứu bên mình.,Tenha cuidado quando estiver perto de um alérgeno que provoque uma crise. Sempre tenha seu remédio de resgate com você.,Tenga cuidado cuando esté cerca de un alérgeno que provoque una convulsión. Lleve siempre consigo su medicamento de rescate.
SAY.scene01_localization.65.,,"Les allergies ont des composantes héréditaires et environnementales. Si l'un de vos parents a des allergies, il est probable que vous en avez aussi.",Les allergies peuvent se transmettre par les parents (héréditaire) et par l'environnement.,Allergies can be transmitted by parents (hereditary) and by the environment.,Die Allergien können durch die Eltern (Vererbung) und durch die Weltumgebung weitergegeben werden.,آلرژی توسط والدین (ارثی) و توسط محیط زیست منتقل می شود.,Alerjiler ebeveynler (kalıtsal) ve çevre tarafından bulaşabilir.,يمكن أن تنتقل الحساسية عن طريق الوالدين (وراثي) والبيئة.,Le allergie possono essere trasmesse dai genitori (ereditari) e dall'ambiente.,アレルギーは、親（遺伝性）および環境によって伝染する可能性があります。,알레르기는 부모로부터 유전되거나 주변 환경 때문에 생길 수 있어.,过敏反应也许是从父母遗传而引起的，也许是周围环境而引起的。,Dị ứng có thể di truyền trong gia đình hoặc có thể do môi trường.,As alergias podem ser transmitidas pelos pais (hereditárias) e pelo meio ambiente.,Las alergias pueden ser transmitidas por los padres (hereditarias) y por el medio ambiente.
SAY.scene01_localization.83.,,"Si cela est votre cas, prenez garde au pollen qui pullule dans ce secteur!","Si cela est votre cas, prenez garde au pollen qui pullule dans ce secteur!","If this is your case, beware of the pollen that breeds in this area!","Wenn es dein Fall ist, paB auf das Pollen, wovon es hier wimmelt !","اگر این مورد شماست ، مواظب گرده هایی باشید که در این منطقه ازدحام می کنند!","Eğer durum buysa, bu bölgede toplanan polenlere dikkat et!","إذا كانت هذه هي حالتك ، فاحذر من حبوب اللقاح التي تنتشر في هذه المنطقة!","Se questo è il tuo caso, fai attenzione al polline che cresce in questa zona !",これがあなたの場合であるならば、この地域に群がる花粉に注意してください！,너도 그런 증상이 있다면 뿌옇게 날리는 꽃가루를 조심하는 게 좋을 거야!,如你也有这种症状，请你小心飞扬的花粉！,"Nếu bạn thuộc nhóm này, hãy cẩn thận với phấn hoa có trong khu vực này.","Se for este o seu caso, tome cuidado com o pólen que se reproduz nesta área!","Si este es tu caso, ¡cuidado con el polen que se reproduce en esta zona!"
SAY.scene01_localization.66.,,Zone Allergène! Continuez à vos risques!,Zone allergène ! Continue à tes risques !,Allergenic area! Continue at your risk!,Allergische Zone ! Weiter auf eigene Gefahr !,منطقه آلرژن! با مسئولیت خود ادامه دهید!,Alerjenik bölge! Riski üstlenerek devam edin!,منطقة مسببات الحساسية! يستمر على مسؤوليتك الخاصة!,Area allergenica ! Continua a tuo rischio !,アレルゲンゾーン！あなた自身の責任で続けてください！,위험을 무릅쓰고 계속 나아가,过敏性危险地区！哪怕危险也不要停下！,Khu vực dị nguyên! Cẩn trọng khi đi tiếp!,Área alérgica! Continue por sua conta e risco!,¡Zona alergénica! ¡Continúe bajo su responsabilidad!
SAY.scene01_localization.464.,,M = Mettre son masque anti allergène et N = Antihistaminique. L'effet de l'antihistaminique est différent quand il est utilisé avant d'être affecté par un allergène.,M = Mettre son masque anti-allergènes et N = Antihistaminique. L'effet de l'antihistaminique est different quand il est utilise avant d'être affecte par un allergène .,M = Put on your anti-allergen mask and N = Antihistamine. The effect of the antihistamine is different when it is used before being affected by an allergen.,"M = Seine Anti-Allergen-Maske aufsetzen. N = Antihistamin. Die Wirkung des Antihistamins ist anders, wenn es vor dem Anfall benüzt wird",M = قناع ابن Mettre المضاد للحساسية وآخرون N = مضادات الهيستامين. L'effet de l'antihistaminique هي مجموعة مختلفة من العلاجات تستخدم تأثيرًا شديدًا على الحساسية.,M = Anti-alerjen maskenizi ve N = Antihistaminiklerinizi takın. Alerjenden etkilenmeden kullanıldığında antihistaminin etkisi farklıdır.,M = ضع قناعك المضاد للحساسية و N = مضادات الهيستامين. يختلف تأثير مضادات الهيستامين عند استخدامه قبل أن يتأثر بمسببات الحساسية.,M = Indossa la tua maschera antiallergenica e N = Antistaminico. L'effetto dell'antistaminico è diverso quando viene utilizzato prima di essere influenzato da un allergene.,M =抗アレルギーマスクを着用し、N =抗ヒスタミン薬。アレルゲンの影響を受ける前に使用した場合、抗ヒスタミン薬の効果は異なります。,"M= 항원 차단 마스크 쓰기 N=항히스타민제. 알레르기 물질에 노출되기 전에 사용하는 경우, 항히스타민제의 효능은 달라져.",M = 戴上抗过敏口罩，N =抗组胺剂。当抗组胺剂在受到变应原影响之前使用时，其效果是不同的。,M = đeo khẩu trang chống dị nguyên và N = thuốc kháng histamin. Tác dụng của các thuốc kháng histamin có sự khác biệt khi được sử dụng trước khi tiếp xúc với dị nguyên.,M = Coloque sua máscara anti-alérgica e N = Anti-histamínico. O efeito do anti-histamínico é diferente quando usado antes de ser afetado por um alérgeno.,M = Ponte tu mascarilla antialérgica y N = Antihistamínico. El efecto del antihistamínico es diferente cuando se usa antes de ser afectado por un alérgeno.
SAY.scene01_localization.43.{$PlayerName},,Je dois d'abords secourir tout le monde dans ce secteur avant de revenir à la ville.,Je dois d’abord secourir tous les gens dans ce secteur avant de retourner en ville.,I must first rescue everyone in this area before returning to town.,"Ich muB zuerst allen Leuten in der Umgebung Hilfe leisten, bevor ich in die Stadt zurückzugehe.",قبل از اینکه به شهر برگردم ابتدا باید همه افراد را در این منطقه نجات دهم.,Kasabaya dönmeden önce bu bölgedeki herkesi kurtarmalıyım.,يجب أولاً أن أنقذ جميع الأشخاص في هذه المنطقة قبل العودة إلى المدينة.,Devo salvare tutti in questa zona prima di tornare in città.,町に戻る前に、まずこの地域のすべての人を救出する必要があります。,도시로 돌아가기 전에 우선 여기 있는 사람부터 모두 구해야 해.,在回归城市之前，首先得挽救这里的所有人。,Trước tiên mình phải giải cứu mọi người trong khu vực này trước khi quay trở lại thành phố.,Devo primeiro resgatar todos nesta área antes de retornar à cidade.,Primero debo rescatar a todos en esta área antes de regresar a la ciudad.
SAY.scene01_localization.360.{$PlayerName},,"Ici {$PlayerName}, je suis devant la patiente. Elle est en état de choc et le mucus lui sort par le nez et les oreilles.","Ici {$PlayerName}, je suis devant mon amie. Elle a perdu connaissance et le mucus lui sort par le nez.","Here {$PlayerName}, I'm in front of my friend. She lost consciousness and the mucus comes out of her nose.",Hier {$PlayerName). Ich bin vor meiner Freundin. Sie idst bewuBtlos und Schleim kommt aus ihrer Nase.,"در اینجا ، من در مقابل دوستم هستم. او بیهوش است و مخاط از بینی او خارج می شود.","Burada {$ PlayerName}, arkadaşımın önündeyim. Bilincini kaybetti ve burnundan mukus çıkıyor.","هنا ، أحتاج إلى وسيلة نقل طارئة. تجدني في اسرع وقت ممكن!","Qui {$PlayerName}, sono davanti alla mia amica. Ha perso conoscenza e il naso è pieno di muco.",ここ{$ PlayerName}、私は友達の前にいます。彼女は意識を失い、鼻から粘液が出てきます。,여기는 {$PlayerName}대원! 친구가 정신을 잃고 쓰러져 있어요. 코로 점액이 흘러나와요.,这是{$PlayerName}队员! 朋友晕倒在地上。她的黏液一直从鼻子流出！,"Đây {$PlayerName}, mình đang ở trước bạn mình. Cô ấy bất tỉnh, và chất nhầy tràn ra từ mũi cô ấy.","Aqui {$PlayerName}, estou na frente do meu amigo. Ela perdeu a consciência e o muco saiu de seu nariz.","Aquí, {$PlayerName}, estoy frente a mi amigo. Ella perdió el conocimiento y la mucosidad sale de su nariz."
SAY.scene01_localization.363.Docteur Boubou,,la situation est sérieuse!,La situation est sérieuse !,The situation is serious!,Die Situation ist ernst !,اوضاع جدی است!,Durum ciddi!,الوضع خطير!,La situazione è seria !,状況は深刻です！,상황이 심각합니다!,情况很严重！,Tình hình rất nguy cấp!,A situação é grave!,¡La situación es grave!
SAY.scene01_localization.365.Colonel,,"n'ayez crainte, nous avons développé une technologie capable de gérer une telle situation.","N’ayez crainte, nous avons développé une technologie capable de gérer une telle situation. Utilisez votre appareil d’urgence et composez le 333 afin d’activer la miniaturisation.",,,,,,,,,,,,
SAY.scene01_localization.367.{$PlayerName},,Un processus de quoi??Un processus de quoi??,Un processus de quoi ??,A process of what...,Ein Prozess von was??,روندی از چی ؟؟,Ne süreci ...,عملية ماذا ؟؟,Un processo di cosa...,何のプロセス??,무슨 기술이길래?,什么程序？,Qúa trình gì...,Um processo de que?,Un proceso de lo que ...
SAY.scene01_localization.368.Colonel,,"Miniaturisation! Nous avons développé cette technologie afin de contrer des cas de crise grave. En vous rapetissant à la taille d'un microbe,","Nous avons développé la miniaturisation afin de contrer des cas de crise grave. En vous rapetissant à la taille d’un microbe, vous pourrez vous rendre dans les poumons de la personne afin d’exterminer le mucus. Activez le processus immédiatement !","We have developed miniaturization to counter serious crisis cases. By shrinking to the size of a microbe, you can go to the lungs of the person to exterminate the mucus. Activate the process immediately !","Wir haben die Miniaturisierung entwickelt, um den ersnten Anfällen entgegenzuwirken . Wenn du so klein wie eine Mikrobe wirst, kannst du die Lungen jemander besichtigen, um das Schleim zu vernichten. Den Prozess sofort aktivieren.!","ما برای مقابله با موارد جدی بحران ، کوچک سازی را توسعه داده ایم. با کوچک شدن به اندازه یک میکروب ، می توانید وارد ریه های فرد شوید تا مخاط را از بین ببرد. بلافاصله فرایند را فعال کنید!","Ciddi kriz durumlarına karşı koymak için minyatürleştirme geliştirdik. Bir mikrop boyutuna küçülerek, mukusu yok etmek için kişinin akciğerlerine gidebilirsin. Süreci hemen etkinleştir!","لقد طورنا التصغير من أجل مواجهة حالات الأزمات الخطيرة. عن طريق الانكماش إلى حجم الميكروب ، يمكنك الوصول إلى رئتي الشخص لتنظيف المخاط. قم بتفعيل العملية على الفور!","Abbiamo sviluppato la miniaturizzazione per contrastare gravi casi di crisi. Riducendo le dimensioni di un microbo, puoi andare ai polmoni della persona per sterminare il muco. Attiva immediatamente il processo !",深刻な危機に対処するために、小型化を開発しました。微生物のサイズに縮小することにより、あなたは粘液を破壊するために人の肺に入ることができます。すぐにプロセスをアクティブにしてください！,심각한 천식 발작을 완화하기 위해 소형화 기술을 개발했어. 세균만큼 몸을 작게 만들어서 발작이 있는 사람의 폐로 들어가 점액을 제거할 수 있지. 당장 소형화 절차를 작동시켜!,为了缓解哮喘发作，我们发明了小型化技术。这能让你的身体变小到细菌大小，进入正在发作的肺部来解除黏液。立刻启动小型化程序！,"Chúng mình phát triển quá trình vi hóa để xử trí các cơn hen trầm trọng, Bằng cách thu nhỏ kích thước thành cở của vi khuẩn, bạn có thể đi vào phổi của bệnh nhân để loại trừ các chất nhầy. Hoạt hóa quá trình này ngay nào!","Desenvolvemos a miniaturização para enfrentar casos de crise grave. Ao diminuir para o tamanho de um micróbio, você pode ir aos pulmões da pessoa para exterminar o muco. Ative o processo imediatamente!","Hemos desarrollado la miniaturización para contrarrestar casos de crisis graves. Al encogerse al tamaño de un microbio, puede ir a los pulmones de la persona para exterminar el moco. ¡Activa el proceso de inmediato!"
SAY.scene01_localization.372.{$PlayerName},,Je ne peux pas. Mon accès est bloqué. Le contrôle parental est activé. Je ne peux pas.,Je ne peux pas. Mon accès est bloqué… Le contrôle parental est activé…,I cannot. My access is blocked... Parental control is activated...,Ich kann nicht. Mein Zugang ist versperrt ...Die Kindersicherung ist aktiviert.,من نمی توانم. دسترسی من مسدود شده است control کنترل والدین فعال است,Yapamam. Erişimim engellendi ... Ebeveyn kontrolü etkinleştirildi ...,لا استطيع. تم حظر وصولي ... تم تنشيط الرقابة الأبوية ...,Non posso Il mio accesso è bloccato... Il controllo parentale è attivato...,私はできません。アクセスがブロックされています…ペアレンタルコントロールが有効になっています…,이거 안 되는데. 자녀 보호 잠금이 활성화 됐나봐..,不行。因为父母的管理系统，我的访问权限被禁了...,Mình không thể. Mình bị hạn chế truy cập... Do chế độ phụ huynh kiểm soát đang được hoạt hóa.,Eu não posso. Meu acesso está bloqueado ... O controle dos pais está ativado ...,No puedo. Mi acceso está bloqueado ... Control parental activado ...
SAY.scene01_localization.373.Colonel,,"Oh! Désolé, c'est une précaution??Après tout, c'est une technologie dangereuse. Le code pour débloquer l'accès est : 1????????.","Oh! Désolé, c’est une précaution… Après tout, c’est une technologie dangereuse. Le code pour débloquer l’accès est 12345.","Oh! Sorry, it's a precaution ... after all, it's a dangerous technology. The code to unlock access is 12345.",Ach ! Es tut mir leid ... es ist eine VorsichtsmaBnahme....Immerhin handelt es sich um eine gefährliche Technologie. Code zu lösen ist 12345.,"اوه با عرض پوزش ، این یک احتیاط است ... به هر حال ، این یک فناوری خطرناک است. کد باز کردن قفل دسترسی 12345 است.","Ah! Üzgünüm, bu bir önlem ... ne de olsa tehlikeli bir teknoloji. Erişim kilidini açma kodu 12345'tir.","أوه! عذرا ، هذا إجراء احترازي ... بعد كل شيء ، إنها تقنية خطيرة. رمز إلغاء حظر الوصول هو 12345.","Oh ! Scusa, è una precauzione... dopotutto, è una tecnologia pericolosa. Il codice per sbloccare l'accesso è 12345.",おー！ 申し訳ありませんが、これは予防策です...結局のところ、それは危険な技術です。 アクセスのロックを解除するためのコードは12345です。,"아, 미안! 예방한다는 게 그만... 어쨌든 위험한 기술인 건 사실이야. 접근 코드는 12345.",啊，不好意思！只是想预防一下... 反正确实是个危险的技术。访问密码是12345。,"Oh! Xin lỗi, đó chỉ là một biện pháp phòng ngừa... dù sao, đây cũng là một công nghệ nguy hiểm. Mã để mở khóa hạn chế truy cập là 12345.","Oh! Desculpe, é uma precaução ... afinal, é uma tecnologia perigosa. O código para desbloquear o acesso é 12345.","Oh! Lo siento, es una precaución ... después de todo, es una tecnología peligrosa. El código para desbloquear el acceso es 12345."
SAY.scene01_localization.375.{$PlayerName},,"c'est marrant c'est le même code que sur mon coffre à jouet??""C'est marrant","C’est marrant, c’est le même code que sur mon coffre à jouet…","It's funny, it's the same code as on my toy box...","Komisch, es ist der selbe Code wie auf meinem Spielzeugbox","خنده دار است ، همان کد موجود در جعبه اسباب بازی من است ...","Komik, oyuncak kutumdaki kodla aynı ...","إنه مضحك ، إنه نفس الرمز الموجود على صندوق الألعاب الخاص بي ...","È divertente, è lo stesso codice della mia scatola dei giocattoli...",おかしい、それは私のおもちゃ箱と同じコードです...,신기하게도 내 장난감 상자와 비밀번호가 같아!,真神奇，居然跟我玩具箱的密码一样！,"Buồn cười vậy, y hệt mã cho hộp đồ chơi của mình...","É engraçado, é o mesmo código da minha caixa de brinquedos ...","Es gracioso, es el mismo código que en mi caja de juguetes ..."
SAY.scene01_localization.376.Colonel,,"Cessez de plaisanter, le temps presse!","Cessez de plaisanter, le temps presse !","Stop joking, time is running out!","Hör auf zu scherzen, es eilt !","دست از شوخی بردارید ، زمان تمام می شود!","Şakayı bırak, zaman azalıyor!","توقف عن المزاح ، الوقت ينفد!","Smettete di scherzare, il tempo stringe !",冗談をやめて、時間がなくなってきました！,농담은 그만! 시간이 없어!,没时间开玩笑了，我们没时间！,"Ngừng đùa nào, sắp hết thời gian rồi!","Pare de brincar, o tempo está se esgotando!","¡Deja de bromear, el tiempo se acaba!"
SAY.scene01_localization.377.{$PlayerName},,? vos ordre colonel!,A vos ordres colonel !,At your orders colonel!,"Zu Befehl, Herr Oberst",به دستور شما سرهنگ!,Emrinizdeyim albay!,بناء على أوامرك العقيد!,"Ai tuoi ordini, colonnello !",ご注文で大佐！,예썰! 칫솔! 마데카솔!,好！遵命！,Theo lệnh của Đại tá!,"Às suas ordens, coronel!","¡A sus órdenes, coronel!"
SAY.scene01_localization.57.,,Vous entrez dans la cavité nasale.,Vous entrez dans la cavité nasale.,You enter the nasal cavity.,Du kommst in die Nasenhöhle ein .,وارد حفره بینی می شوید.,Burun boşluğuna girersin.,تدخل التجويف الأنفي.,Si entra nella cavità nasale.,あなたは鼻腔に入ります。,코안으로 들어가.,进入鼻腔吧。,Bạn xâm nhập vào khoang mũi,Você entra na cavidade nasal.,Entras en la cavidad nasal.
CHARACTER.Valeria,,Valeria,Valeria,Valeria,Valeria,والریا,Valeria,فاليريا,Valeria,ヴァレリア,발레리아,巴雷利阿,Valeria,Valeria,Valeria
CHARACTER.{$PlayerName},,{$PlayerName},{$PlayerName},{$PlayerName},{$PlayerName},{$PlayerName},{$PlayerName},{$PlayerName},{$PlayerName},{$PlayerName},{$PlayerName},{$PlayerName},{$PlayerName},{$PlayerName},{$PlayerName}
CHARACTER.Fanny,,Fanny,Fanny,Fanny,Fanny,فانی,Fanny,فاني,Fanny,ファニー,파니,伐妮,Fanny,Fanny,Fanny
CHARACTER.Docteur Boubou,,Docteur Boubou,Docteur Boubou,Doctor Boubou,Doktor Boubou,دکتر بوبو,Doktor Boubou,دكتور بوبو,Dottore Boubou,ブーブー博士,부부 선생님,卟卟先生,Bác sĩ Bông Súng,Doutor BuBu,Doctor BuBu
CHARACTER.Colonel,,Colonel,Colonel,Colonel,Oberst,,Albay,عقيد,Colonello,大佐,대장,队长,Đại tá,Coronel,Coronel
CHARACTER.Julie,,Julie,Julie,Julie,Julie,جولی,Julie,جولي,Julie,ジュリー,줄리,朱莉,Julie,Julie,Julia
CHARACTER.Rebecca,,Rebecca,Rebecca,Rebecca,Rebecca,ربکا,Rebecca,ريبيكا,Rebecca,レベッカ,레베카,瑞贝卡,Rebecca,Rebecca,Rebeca
SAY.scene01_localization.252.,,Aucun Signal!,Aucun signal !,No signal!,Kein Signal,سیگنالی دریافت نشد,Sinyal yok !,لا توجد أي إشارة !,Nessun segnale !,異常なし！,신호 없음!,暂无信号！,Không tín hiệu!,Sem sinal!,¡Sin señal!
CHARACTER.Tinder,,Tinder,Tinder,Tinder,Tinder,تیندر,Tinder,تيندر,Tinder,TheTinder,틴더,汀德,Tinder,Tinder,tinder
CHARACTER.Dufus,,Dufus,Dufus,Dufus,Dufus,دوفور,Dufur,غبي,Dufus,Dufus,두푸스,杜夫斯,Dufus,Dufus,dufus
,,,,,,,,,,,,,,,
,,,,,,,,,,,,,,,
SAY.scene01_localization.361.{$PlayerName},,"Nous sommes en altitude, le vent est violent, l’air est froid et sec et il y a du pollen dans l’atmosphère. ","Nous sommes en altitude, le vent est violent, l’air est froid et sec et il y a du pollen dans l’atmosphère. ",,,,,,,,,,,,
SAY.scene01_localization.366.Colonel,,Utilisez votre appareil d’urgence et composé le 333 afin d’activer le processus de miniaturisation de votre dispositif cellulaire.,Utilisez votre appareil d’urgence et composé le 333 afin d’activer le processus de miniaturisation de votre dispositif cellulaire.,,,,,,,,,,,,
SAY.scene01_localization.369.Colonel,,vous pourrez pénétrer la cavité nasale de la patiente et vous rendre vers ses poumons afin d’exterminer le mucus de l’intérieur. ,vous pourrez pénétrer la cavité nasale de la patiente et vous rendre vers ses poumons afin d’exterminer le mucus de l’intérieur. ,,,,,,,,,,,,
SAY.scene01_localization.370.Colonel,,"Ne perdez pas de temps, activez le processus immédiatement!","Ne perdez pas de temps, activez le processus immédiatement!",,,,,,,,,,,,
SAY.scene01_localization.451.Tinder,,"des sécrétions nasales, de l’irritation au niveau du nez, des yeux et de la bouche, des éternuements, une congestion pouvant entraîner des maux de tête et une pression dans le nez et les joues.","des sécrétions nasales, de l’irritation au niveau du nez, des yeux et de la bouche, des éternuements, une congestion pouvant entraîner des maux de tête et une pression dans le nez et les joues.",,,,,,,,,,,,
SAY.scene01_localization.393.Rebecca,,mais son égo démesuré a pris le dessus et elle s’est lancée en flèche dans le champ de pollen armé d’un rire de folie et sans sa pompe…,mais son égo démesuré a pris le dessus et elle s’est lancée en flèche dans le champ de pollen armé d’un rire de folie et sans sa pompe…,,,,,,,,,,,,
SAY.scene01_localization.392.{$PlayerName},,Il est préférable que j’utilise mon antihistaminique avant d’aller la secourir afin d’aider à combattre une manifestation allergique.,Il est préférable que j’utilise mon antihistaminique avant d’aller la secourir afin d’aider à combattre une manifestation allergique.,,,,,,,,,,,,
