%YAML 1.1
%TAG !u! tag:unity3d.com,2011:
--- !u!114 &11400000
MonoBehaviour:
  m_ObjectHideFlags: 0
  m_CorrespondingSourceObject: {fileID: 0}
  m_PrefabInternal: {fileID: 0}
  m_GameObject: {fileID: 0}
  m_Enabled: 1
  m_EditorHideFlags: 0
  m_Script: {fileID: 11500000, guid: 7d621ebf5cdc8434784c81eb49c37433, type: 3}
  m_Name: Gem
  m_EditorClassIdentifier: 
  id: d78cb0dcadd58d545af5648eb2d82f3c
  itemName: Gem
  icon: {fileID: 21300000, guid: 1f5d8bd14c5998840b575bd34a6db2a6, type: 3}
  MaximumStack: 9
