%YAML 1.1
%TAG !u! tag:unity3d.com,2011:
--- !u!114 &11400000
MonoBehaviour:
  m_ObjectHideFlags: 0
  m_CorrespondingSourceObject: {fileID: 0}
  m_PrefabInternal: {fileID: 0}
  m_GameObject: {fileID: 0}
  m_Enabled: 1
  m_EditorHideFlags: 0
  m_Script: {fileID: 11500000, guid: 7d621ebf5cdc8434784c81eb49c37433, type: 3}
  m_Name: Gold Coin
  m_EditorClassIdentifier: 
  id: 2ef9c700f62484c479c2aac348d5247a
  itemName: Gold Coin
  icon: {fileID: 21300000, guid: b3f4a9cb9905e974f9bf6a4e2081f566, type: 3}
  MaximumStack: 9
